-------------------------------------------------------------------------------
Test set: org.apache.commons.collections4.queue.TransformedQueueTest
-------------------------------------------------------------------------------
Tests run: 37, Failures: 0, Errors: 0, Skipped: 0, Time elapsed: 0.007 s - in org.apache.commons.collections4.queue.TransformedQueueTest
