-------------------------------------------------------------------------------
Test set: org.apache.commons.collections4.set.TransformedSetTest
-------------------------------------------------------------------------------
Tests run: 30, Failures: 0, Errors: 0, Skipped: 0, Time elapsed: 0.002 s - in org.apache.commons.collections4.set.TransformedSetTest
