-------------------------------------------------------------------------------
Test set: org.apache.commons.collections4.set.UnmodifiableSortedSetTest
-------------------------------------------------------------------------------
Tests run: 115, Failures: 0, Errors: 0, Skipped: 0, Time elapsed: 0.009 s - in org.apache.commons.collections4.set.UnmodifiableSortedSetTest
