-------------------------------------------------------------------------------
Test set: org.apache.commons.collections4.map.MultiKeyMapTest
-------------------------------------------------------------------------------
Tests run: 164, Failures: 0, Errors: 0, Skipped: 0, Time elapsed: 0.053 s - in org.apache.commons.collections4.map.MultiKeyMapTest
