-------------------------------------------------------------------------------
Test set: org.apache.commons.collections4.map.DefaultedMapTest
-------------------------------------------------------------------------------
Tests run: 53, Failures: 0, Errors: 0, Skipped: 0, Time elapsed: 0.005 s - in org.apache.commons.collections4.map.DefaultedMapTest
