-------------------------------------------------------------------------------
Test set: org.apache.commons.collections4.map.PassiveExpiringMapTest
-------------------------------------------------------------------------------
Tests run: 144, Failures: 0, Errors: 0, Skipped: 0, Time elapsed: 6.048 s - in org.apache.commons.collections4.map.PassiveExpiringMapTest
