-------------------------------------------------------------------------------
Test set: org.apache.commons.collections4.map.TransformedSortedMapTest
-------------------------------------------------------------------------------
Tests run: 546, Failures: 0, Errors: 0, Skipped: 0, Time elapsed: 0.102 s - in org.apache.commons.collections4.map.TransformedSortedMapTest
