-------------------------------------------------------------------------------
Test set: org.apache.commons.collections4.keyvalue.DefaultMapEntryTest
-------------------------------------------------------------------------------
Tests run: 5, Failures: 0, Errors: 0, Skipped: 0, Time elapsed: 0 s - in org.apache.commons.collections4.keyvalue.DefaultMapEntryTest
