-------------------------------------------------------------------------------
Test set: org.apache.commons.collections4.map.Flat3MapTest
-------------------------------------------------------------------------------
Tests run: 196, Failures: 0, Errors: 0, Skipped: 0, Time elapsed: 0.046 s - in org.apache.commons.collections4.map.Flat3MapTest
