-------------------------------------------------------------------------------
Test set: org.apache.commons.collections4.PredicateUtilsTest
-------------------------------------------------------------------------------
Tests run: 65, Failures: 0, Errors: 0, Skipped: 0, Time elapsed: 0.015 s - in org.apache.commons.collections4.PredicateUtilsTest
