-------------------------------------------------------------------------------
Test set: org.apache.commons.collections4.bidimap.UnmodifiableOrderedBidiMapTest
-------------------------------------------------------------------------------
Tests run: 385, Failures: 0, Errors: 0, Skipped: 0, Time elapsed: 0.104 s - in org.apache.commons.collections4.bidimap.UnmodifiableOrderedBidiMapTest
