-------------------------------------------------------------------------------
Test set: org.apache.commons.collections4.iterators.ArrayListIteratorTest
-------------------------------------------------------------------------------
Tests run: 16, Failures: 0, Errors: 0, Skipped: 0, Time elapsed: 0.02 s - in org.apache.commons.collections4.iterators.ArrayListIteratorTest
