-------------------------------------------------------------------------------
Test set: org.apache.commons.collections4.bag.UnmodifiableSortedBagTest
-------------------------------------------------------------------------------
Tests run: 76, Failures: 0, Errors: 0, Skipped: 0, Time elapsed: 0.007 s - in org.apache.commons.collections4.bag.UnmodifiableSortedBagTest
