-------------------------------------------------------------------------------
Test set: org.apache.commons.collections4.keyvalue.DefaultKeyValueTest
-------------------------------------------------------------------------------
Tests run: 6, Failures: 0, Errors: 0, Skipped: 0, Time elapsed: 0 s - in org.apache.commons.collections4.keyvalue.DefaultKeyValueTest
