-------------------------------------------------------------------------------
Test set: org.apache.commons.collections4.iterators.LoopingListIteratorTest
-------------------------------------------------------------------------------
Tests run: 12, Failures: 0, Errors: 0, Skipped: 0, Time elapsed: 0.002 s - in org.apache.commons.collections4.iterators.LoopingListIteratorTest
