-------------------------------------------------------------------------------
Test set: org.apache.commons.collections4.bag.PredicatedSortedBagTest
-------------------------------------------------------------------------------
Tests run: 76, Failures: 0, Errors: 0, Skipped: 0, Time elapsed: 0.016 s - in org.apache.commons.collections4.bag.PredicatedSortedBagTest
