-------------------------------------------------------------------------------
Test set: org.apache.commons.collections4.TransformerUtilsTest
-------------------------------------------------------------------------------
Tests run: 18, Failures: 0, Errors: 0, Skipped: 0, Time elapsed: 0.015 s - in org.apache.commons.collections4.TransformerUtilsTest
