-------------------------------------------------------------------------------
Test set: org.apache.commons.collections4.queue.SynchronizedQueueTest
-------------------------------------------------------------------------------
Tests run: 36, Failures: 0, Errors: 0, Skipped: 0, Time elapsed: 0.006 s - in org.apache.commons.collections4.queue.SynchronizedQueueTest
