<?xml version="1.0" encoding="UTF-8"?>
<testsuite xmlns:xsi="http://www.w3.org/2001/XMLSchema-instance" xsi:noNamespaceSchemaLocation="https://maven.apache.org/surefire/maven-surefire-plugin/xsd/surefire-test-report.xsd" name="org.apache.commons.collections4.bag.UnmodifiableBagTest" time="0.006" tests="76" errors="0" skipped="0" failures="0">
  <properties>
    <property name="awt.toolkit" value="sun.awt.X11.XToolkit"/>
    <property name="file.encoding.pkg" value="sun.io"/>
    <property name="java.specification.version" value="1.8"/>
    <property name="sun.cpu.isalist" value=""/>
    <property name="sun.jnu.encoding" value="UTF-8"/>
    <property name="java.class.path" value="/home/bli11/data/commons-collections4-4.2-src_original/target/test-classes:/home/bli11/data/commons-collections4-4.2-src_original/target/classes:/home/bli11/.m2/repository/junit/junit/4.12/junit-4.12.jar:/home/bli11/.m2/repository/org/hamcrest/hamcrest-core/1.3/hamcrest-core-1.3.jar:/home/bli11/.m2/repository/org/easymock/easymock/3.6/easymock-3.6.jar:/home/bli11/.m2/repository/org/objenesis/objenesis/2.6/objenesis-2.6.jar:/home/bli11/.m2/repository/org/apache/commons/commons-lang3/3.7/commons-lang3-3.7.jar:"/>
    <property name="java.vm.vendor" value="Oracle Corporation"/>
    <property name="sun.arch.data.model" value="64"/>
    <property name="java.vendor.url" value="http://java.oracle.com/"/>
    <property name="user.timezone" value=""/>
    <property name="java.vm.specification.version" value="1.8"/>
    <property name="os.name" value="Linux"/>
    <property name="user.country" value="US"/>
    <property name="sun.java.launcher" value="SUN_STANDARD"/>
    <property name="sun.boot.library.path" value="/home/bli11/java_work/jdk1.8/jdk1.8.0_161/jre/lib/amd64"/>
    <property name="sun.java.command" value="/home/bli11/data/commons-collections4-4.2-src_original/target/surefire/surefirebooter701846941633811859.jar /home/bli11/data/commons-collections4-4.2-src_original/target/surefire 2020-03-04T16-36-42_979-jvmRun1 surefire6820670483459155442tmp surefire_08458627340199513690tmp"/>
    <property name="surefire.test.class.path" value="/home/bli11/data/commons-collections4-4.2-src_original/target/test-classes:/home/bli11/data/commons-collections4-4.2-src_original/target/classes:/home/bli11/.m2/repository/junit/junit/4.12/junit-4.12.jar:/home/bli11/.m2/repository/org/hamcrest/hamcrest-core/1.3/hamcrest-core-1.3.jar:/home/bli11/.m2/repository/org/easymock/easymock/3.6/easymock-3.6.jar:/home/bli11/.m2/repository/org/objenesis/objenesis/2.6/objenesis-2.6.jar:/home/bli11/.m2/repository/org/apache/commons/commons-lang3/3.7/commons-lang3-3.7.jar:"/>
    <property name="sun.cpu.endian" value="little"/>
    <property name="user.home" value="/home/bli11"/>
    <property name="user.language" value="en"/>
    <property name="java.specification.vendor" value="Oracle Corporation"/>
    <property name="java.home" value="/home/bli11/java_work/jdk1.8/jdk1.8.0_161/jre"/>
    <property name="basedir" value="/home/bli11/data/commons-collections4-4.2-src_original"/>
    <property name="file.separator" value="/"/>
    <property name="line.separator" value="&#10;"/>
    <property name="java.vm.specification.vendor" value="Oracle Corporation"/>
    <property name="java.specification.name" value="Java Platform API Specification"/>
    <property name="java.awt.graphicsenv" value="sun.awt.X11GraphicsEnvironment"/>
    <property name="surefire.real.class.path" value="/home/bli11/data/commons-collections4-4.2-src_original/target/surefire/surefirebooter701846941633811859.jar:/home/bli11/.m2/repository/org/jacoco/org.jacoco.agent/0.8.1/org.jacoco.agent-0.8.1-runtime.jar"/>
    <property name="sun.boot.class.path" value="/home/bli11/java_work/jdk1.8/jdk1.8.0_161/jre/lib/resources.jar:/home/bli11/java_work/jdk1.8/jdk1.8.0_161/jre/lib/rt.jar:/home/bli11/java_work/jdk1.8/jdk1.8.0_161/jre/lib/sunrsasign.jar:/home/bli11/java_work/jdk1.8/jdk1.8.0_161/jre/lib/jsse.jar:/home/bli11/java_work/jdk1.8/jdk1.8.0_161/jre/lib/jce.jar:/home/bli11/java_work/jdk1.8/jdk1.8.0_161/jre/lib/charsets.jar:/home/bli11/java_work/jdk1.8/jdk1.8.0_161/jre/lib/jfr.jar:/home/bli11/java_work/jdk1.8/jdk1.8.0_161/jre/classes"/>
    <property name="sun.management.compiler" value="HotSpot 64-Bit Tiered Compilers"/>
    <property name="java.runtime.version" value="1.8.0_161-b12"/>
    <property name="user.name" value="bli11"/>
    <property name="path.separator" value=":"/>
    <property name="os.version" value="5.1.0"/>
    <property name="java.endorsed.dirs" value="/home/bli11/java_work/jdk1.8/jdk1.8.0_161/jre/lib/endorsed"/>
    <property name="java.runtime.name" value="Java(TM) SE Runtime Environment"/>
    <property name="file.encoding" value="UTF-8"/>
    <property name="java.vm.name" value="Java HotSpot(TM) 64-Bit Server VM"/>
    <property name="localRepository" value="/home/bli11/.m2/repository"/>
    <property name="java.vendor.url.bug" value="http://bugreport.sun.com/bugreport/"/>
    <property name="java.io.tmpdir" value="/tmp"/>
    <property name="java.version" value="1.8.0_161"/>
    <property name="user.dir" value="/home/bli11/data/commons-collections4-4.2-src_original"/>
    <property name="os.arch" value="amd64"/>
    <property name="java.vm.specification.name" value="Java Virtual Machine Specification"/>
    <property name="java.awt.printerjob" value="sun.print.PSPrinterJob"/>
    <property name="sun.os.patch.level" value="unknown"/>
    <property name="java.library.path" value="/home/bli11/java_work/jdk1.8/jdk1.8.0_161/jre/lib/amd64/server:/home/bli11/java_work/jdk1.8/jdk1.8.0_161/jre/lib/amd64:/home/bli11/java_work/jdk1.8/jdk1.8.0_161/jre/../lib/amd64:/home/bli11/data_centric/data_centric_java_profiler/thirdparty/watchpoint-lib/src:/home/bli11/data_centric/data_centric_java_profiler/thirdparty/xed/obj:/home/bli11/java_work/jdk1.8/jdk1.8.0_161/jre/lib/amd64/server:/usr/java/packages/lib/amd64:/usr/lib64:/lib64:/lib:/usr/lib"/>
    <property name="java.vm.info" value="mixed mode"/>
    <property name="java.vendor" value="Oracle Corporation"/>
    <property name="java.vm.version" value="25.161-b12"/>
    <property name="java.ext.dirs" value="/home/bli11/java_work/jdk1.8/jdk1.8.0_161/jre/lib/ext:/usr/java/packages/lib/ext"/>
    <property name="sun.io.unicode.encoding" value="UnicodeLittle"/>
    <property name="java.class.version" value="52.0"/>
  </properties>
  <testcase name="testDecorateFactory" classname="org.apache.commons.collections4.bag.UnmodifiableBagTest" time="0"/>
  <testcase name="testUnmodifiable" classname="org.apache.commons.collections4.bag.UnmodifiableBagTest" time="0"/>
  <testcase name="testBagAdd" classname="org.apache.commons.collections4.bag.UnmodifiableBagTest" time="0"/>
  <testcase name="testBagEqualsSelf" classname="org.apache.commons.collections4.bag.UnmodifiableBagTest" time="0"/>
  <testcase name="testBagRemove" classname="org.apache.commons.collections4.bag.UnmodifiableBagTest" time="0"/>
  <testcase name="testBagRemoveAll" classname="org.apache.commons.collections4.bag.UnmodifiableBagTest" time="0"/>
  <testcase name="testBagContains" classname="org.apache.commons.collections4.bag.UnmodifiableBagTest" time="0"/>
  <testcase name="testBagContainsAll" classname="org.apache.commons.collections4.bag.UnmodifiableBagTest" time="0"/>
  <testcase name="testBagSize" classname="org.apache.commons.collections4.bag.UnmodifiableBagTest" time="0"/>
  <testcase name="testBagRetainAll" classname="org.apache.commons.collections4.bag.UnmodifiableBagTest" time="0"/>
  <testcase name="testBagIterator" classname="org.apache.commons.collections4.bag.UnmodifiableBagTest" time="0"/>
  <testcase name="testBagIteratorFail" classname="org.apache.commons.collections4.bag.UnmodifiableBagTest" time="0"/>
  <testcase name="testBagIteratorFailNoMore" classname="org.apache.commons.collections4.bag.UnmodifiableBagTest" time="0"/>
  <testcase name="testBagIteratorFailDoubleRemove" classname="org.apache.commons.collections4.bag.UnmodifiableBagTest" time="0"/>
  <testcase name="testBagIteratorRemoveProtectsInvariants" classname="org.apache.commons.collections4.bag.UnmodifiableBagTest" time="0"/>
  <testcase name="testBagToArray" classname="org.apache.commons.collections4.bag.UnmodifiableBagTest" time="0"/>
  <testcase name="testBagToArrayPopulate" classname="org.apache.commons.collections4.bag.UnmodifiableBagTest" time="0"/>
  <testcase name="testBagEquals" classname="org.apache.commons.collections4.bag.UnmodifiableBagTest" time="0"/>
  <testcase name="testBagEqualsHashBag" classname="org.apache.commons.collections4.bag.UnmodifiableBagTest" time="0"/>
  <testcase name="testBagHashCode" classname="org.apache.commons.collections4.bag.UnmodifiableBagTest" time="0"/>
  <testcase name="testSetEquals" classname="org.apache.commons.collections4.bag.AbstractBagTest$TestBagUniqueSet" time="0"/>
  <testcase name="testSetHashCode" classname="org.apache.commons.collections4.bag.AbstractBagTest$TestBagUniqueSet" time="0"/>
  <testcase name="testSerializeDeserializeThenCompare" classname="org.apache.commons.collections4.bag.AbstractBagTest$TestBagUniqueSet" time="0"/>
  <testcase name="testCollectionAdd" classname="org.apache.commons.collections4.bag.AbstractBagTest$TestBagUniqueSet" time="0"/>
  <testcase name="testCollectionAddAll" classname="org.apache.commons.collections4.bag.AbstractBagTest$TestBagUniqueSet" time="0"/>
  <testcase name="testUnsupportedAdd" classname="org.apache.commons.collections4.bag.AbstractBagTest$TestBagUniqueSet" time="0"/>
  <testcase name="testCollectionClear" classname="org.apache.commons.collections4.bag.AbstractBagTest$TestBagUniqueSet" time="0"/>
  <testcase name="testCollectionContains" classname="org.apache.commons.collections4.bag.AbstractBagTest$TestBagUniqueSet" time="0"/>
  <testcase name="testCollectionContainsAll" classname="org.apache.commons.collections4.bag.AbstractBagTest$TestBagUniqueSet" time="0"/>
  <testcase name="testCollectionIsEmpty" classname="org.apache.commons.collections4.bag.AbstractBagTest$TestBagUniqueSet" time="0"/>
  <testcase name="testCollectionIterator" classname="org.apache.commons.collections4.bag.AbstractBagTest$TestBagUniqueSet" time="0.001"/>
  <testcase name="testCollectionIteratorRemove" classname="org.apache.commons.collections4.bag.AbstractBagTest$TestBagUniqueSet" time="0"/>
  <testcase name="testCollectionRemove" classname="org.apache.commons.collections4.bag.AbstractBagTest$TestBagUniqueSet" time="0"/>
  <testcase name="testCollectionRemoveAll" classname="org.apache.commons.collections4.bag.AbstractBagTest$TestBagUniqueSet" time="0"/>
  <testcase name="testCollectionRetainAll" classname="org.apache.commons.collections4.bag.AbstractBagTest$TestBagUniqueSet" time="0"/>
  <testcase name="testCollectionSize" classname="org.apache.commons.collections4.bag.AbstractBagTest$TestBagUniqueSet" time="0"/>
  <testcase name="testCollectionToArray" classname="org.apache.commons.collections4.bag.AbstractBagTest$TestBagUniqueSet" time="0"/>
  <testcase name="testCollectionToArray2" classname="org.apache.commons.collections4.bag.AbstractBagTest$TestBagUniqueSet" time="0"/>
  <testcase name="testCollectionToString" classname="org.apache.commons.collections4.bag.AbstractBagTest$TestBagUniqueSet" time="0"/>
  <testcase name="testUnsupportedRemove" classname="org.apache.commons.collections4.bag.AbstractBagTest$TestBagUniqueSet" time="0"/>
  <testcase name="testCollectionIteratorFailFast" classname="org.apache.commons.collections4.bag.AbstractBagTest$TestBagUniqueSet" time="0"/>
  <testcase name="testObjectHashCodeEqualsSelfHashCode" classname="org.apache.commons.collections4.bag.AbstractBagTest$TestBagUniqueSet" time="0"/>
  <testcase name="testObjectEqualsSelf" classname="org.apache.commons.collections4.bag.AbstractBagTest$TestBagUniqueSet" time="0"/>
  <testcase name="testEqualsNull" classname="org.apache.commons.collections4.bag.AbstractBagTest$TestBagUniqueSet" time="0"/>
  <testcase name="testObjectHashCodeEqualsContract" classname="org.apache.commons.collections4.bag.AbstractBagTest$TestBagUniqueSet" time="0"/>
  <testcase name="testSimpleSerialization" classname="org.apache.commons.collections4.bag.AbstractBagTest$TestBagUniqueSet" time="0"/>
  <testcase name="testCanonicalEmptyCollectionExists" classname="org.apache.commons.collections4.bag.AbstractBagTest$TestBagUniqueSet" time="0"/>
  <testcase name="testCanonicalFullCollectionExists" classname="org.apache.commons.collections4.bag.AbstractBagTest$TestBagUniqueSet" time="0"/>
  <testcase name="testEmptyBagCompatibility" classname="org.apache.commons.collections4.bag.UnmodifiableBagTest" time="0.001"/>
  <testcase name="testFullBagCompatibility" classname="org.apache.commons.collections4.bag.UnmodifiableBagTest" time="0"/>
  <testcase name="testSerializeDeserializeThenCompare" classname="org.apache.commons.collections4.bag.UnmodifiableBagTest" time="0.001"/>
  <testcase name="testCollectionAdd" classname="org.apache.commons.collections4.bag.UnmodifiableBagTest" time="0"/>
  <testcase name="testCollectionAddAll" classname="org.apache.commons.collections4.bag.UnmodifiableBagTest" time="0"/>
  <testcase name="testUnsupportedAdd" classname="org.apache.commons.collections4.bag.UnmodifiableBagTest" time="0"/>
  <testcase name="testCollectionClear" classname="org.apache.commons.collections4.bag.UnmodifiableBagTest" time="0"/>
  <testcase name="testCollectionContains" classname="org.apache.commons.collections4.bag.UnmodifiableBagTest" time="0"/>
  <testcase name="testCollectionContainsAll" classname="org.apache.commons.collections4.bag.UnmodifiableBagTest" time="0"/>
  <testcase name="testCollectionIsEmpty" classname="org.apache.commons.collections4.bag.UnmodifiableBagTest" time="0"/>
  <testcase name="testCollectionIterator" classname="org.apache.commons.collections4.bag.UnmodifiableBagTest" time="0"/>
  <testcase name="testCollectionIteratorRemove" classname="org.apache.commons.collections4.bag.UnmodifiableBagTest" time="0"/>
  <testcase name="testCollectionRemove" classname="org.apache.commons.collections4.bag.UnmodifiableBagTest" time="0"/>
  <testcase name="testCollectionRemoveAll" classname="org.apache.commons.collections4.bag.UnmodifiableBagTest" time="0"/>
  <testcase name="testCollectionRetainAll" classname="org.apache.commons.collections4.bag.UnmodifiableBagTest" time="0"/>
  <testcase name="testCollectionSize" classname="org.apache.commons.collections4.bag.UnmodifiableBagTest" time="0"/>
  <testcase name="testCollectionToArray" classname="org.apache.commons.collections4.bag.UnmodifiableBagTest" time="0"/>
  <testcase name="testCollectionToArray2" classname="org.apache.commons.collections4.bag.UnmodifiableBagTest" time="0"/>
  <testcase name="testCollectionToString" classname="org.apache.commons.collections4.bag.UnmodifiableBagTest" time="0"/>
  <testcase name="testUnsupportedRemove" classname="org.apache.commons.collections4.bag.UnmodifiableBagTest" time="0"/>
  <testcase name="testCollectionIteratorFailFast" classname="org.apache.commons.collections4.bag.UnmodifiableBagTest" time="0"/>
  <testcase name="testObjectHashCodeEqualsSelfHashCode" classname="org.apache.commons.collections4.bag.UnmodifiableBagTest" time="0"/>
  <testcase name="testObjectEqualsSelf" classname="org.apache.commons.collections4.bag.UnmodifiableBagTest" time="0"/>
  <testcase name="testEqualsNull" classname="org.apache.commons.collections4.bag.UnmodifiableBagTest" time="0"/>
  <testcase name="testObjectHashCodeEqualsContract" classname="org.apache.commons.collections4.bag.UnmodifiableBagTest" time="0"/>
  <testcase name="testSimpleSerialization" classname="org.apache.commons.collections4.bag.UnmodifiableBagTest" time="0"/>
  <testcase name="testCanonicalEmptyCollectionExists" classname="org.apache.commons.collections4.bag.UnmodifiableBagTest" time="0"/>
  <testcase name="testCanonicalFullCollectionExists" classname="org.apache.commons.collections4.bag.UnmodifiableBagTest" time="0.001"/>
</testsuite>