<?xml version="1.0" encoding="ISO-8859-1" ?>
<specjvm-result>
  <workload>SPECjvm2008 Peak</workload>
  <suite-build-version>SPECjvm2008 1.01 (20090519)</suite-build-version>
  <run-info>
    <spec.jvm2008.report.run.location>n/a</spec.jvm2008.report.run.location>
    <spec.jvm2008.report.run.submitter.url>n/a</spec.jvm2008.report.run.submitter.url>
    <spec.jvm2008.report.run.license>n/a</spec.jvm2008.report.run.license>
    <spec.jvm2008.report.run.tester>psu</spec.jvm2008.report.run.tester>
    <spec.jvm2008.report.run.date>Wed Oct 10 10:42:31 EDT 2018</spec.jvm2008.report.run.date>
    <spec.jvm2008.report.run.submitter>n/a</spec.jvm2008.report.run.submitter>
  </run-info>
  <jvm-info>
    <spec.jvm2008.report.jvm.vendor>Oracle Corporation</spec.jvm2008.report.jvm.vendor>
    <spec.jvm2008.report.jvm.startup.launcher>default</spec.jvm2008.report.jvm.startup.launcher>
    <spec.jvm2008.report.jvm.other.tuning> </spec.jvm2008.report.jvm.other.tuning>
    <spec.jvm2008.report.jvm.vendor.url>http://java.oracle.com/</spec.jvm2008.report.jvm.vendor.url>
    <spec.jvm2008.report.jvm.command.line.max.heap.size>n/a</spec.jvm2008.report.jvm.command.line.max.heap.size>
    <spec.jvm2008.report.jvm.version>11+28 mixed mode</spec.jvm2008.report.jvm.version>
    <spec.jvm2008.report.jvm.command.line>n/a</spec.jvm2008.report.jvm.command.line>
    <spec.jvm2008.report.jvm.command.line.initial.heap.size>n/a</spec.jvm2008.report.jvm.command.line.initial.heap.size>
    <spec.jvm2008.report.jvm.boot.class.path>n/a</spec.jvm2008.report.jvm.boot.class.path>
    <spec.jvm2008.report.jvm.name>Java HotSpot(TM) 64-Bit Server VM</spec.jvm2008.report.jvm.name>
    <spec.jvm2008.report.jvm.app.class.path>SPECjvm2008.jar</spec.jvm2008.report.jvm.app.class.path>
    <spec.jvm2008.report.jvm.available.date>n/a</spec.jvm2008.report.jvm.available.date>
    <spec.jvm2008.report.jvm.java.specification>11</spec.jvm2008.report.jvm.java.specification>
    <spec.jvm2008.report.jvm.address.bits>64</spec.jvm2008.report.jvm.address.bits>
    <spec.jvm2008.report.jvm.startup.command.line> </spec.jvm2008.report.jvm.startup.command.line>
  </jvm-info>
  <sw-info>
    <spec.jvm2008.report.sw.other.available> </spec.jvm2008.report.sw.other.available>
    <spec.jvm2008.report.os.tuning> </spec.jvm2008.report.os.tuning>
    <spec.jvm2008.report.sw.filesystem>n/a</spec.jvm2008.report.sw.filesystem>
    <spec.jvm2008.report.os.available.date>n/a</spec.jvm2008.report.os.available.date>
    <spec.jvm2008.report.sw.other.tuning> </spec.jvm2008.report.sw.other.tuning>
    <spec.jvm2008.report.os.address.bits>n/a</spec.jvm2008.report.os.address.bits>
    <spec.jvm2008.report.sw.other.name> </spec.jvm2008.report.sw.other.name>
    <spec.jvm2008.report.os.name>Linux</spec.jvm2008.report.os.name>
  </sw-info>
  <hw-info>
    <spec.jvm2008.report.hw.available>n/a</spec.jvm2008.report.hw.available>
    <spec.jvm2008.report.hw.vendor.url>n/a</spec.jvm2008.report.hw.vendor.url>
    <spec.jvm2008.report.hw.number.of.cores.per.chip>n/a</spec.jvm2008.report.hw.number.of.cores.per.chip>
    <spec.jvm2008.report.hw.address.bits>n/a</spec.jvm2008.report.hw.address.bits>
    <spec.jvm2008.report.hw.cpu.speed>n/a</spec.jvm2008.report.hw.cpu.speed>
    <spec.jvm2008.report.hw.cpu.cache.other>n/a</spec.jvm2008.report.hw.cpu.cache.other>
    <spec.jvm2008.report.hw.cpu.vendor.url>n/a</spec.jvm2008.report.hw.cpu.vendor.url>
    <spec.jvm2008.report.hw.cpu.cache.l2>n/a</spec.jvm2008.report.hw.cpu.cache.l2>
    <spec.jvm2008.report.hw.cpu.cache.l1>n/a</spec.jvm2008.report.hw.cpu.cache.l1>
    <spec.jvm2008.report.hw.logical.cpus>n/a</spec.jvm2008.report.hw.logical.cpus>
    <spec.jvm2008.report.hw.number.of.chips>n/a</spec.jvm2008.report.hw.number.of.chips>
    <spec.jvm2008.report.hw.memory.details>n/a</spec.jvm2008.report.hw.memory.details>
    <spec.jvm2008.report.hw.details.other>n/a</spec.jvm2008.report.hw.details.other>
    <spec.jvm2008.report.hw.cpu.vendor>n/a</spec.jvm2008.report.hw.cpu.vendor>
    <spec.jvm2008.report.hw.model>n/a</spec.jvm2008.report.hw.model>
    <spec.jvm2008.report.hw.number.of.cores>n/a</spec.jvm2008.report.hw.number.of.cores>
    <spec.jvm2008.report.hw.memory.size>n/a</spec.jvm2008.report.hw.memory.size>
    <spec.jvm2008.report.hw.vendor>n/a</spec.jvm2008.report.hw.vendor>
    <spec.jvm2008.report.hw.cpu.name>n/a</spec.jvm2008.report.hw.cpu.name>
    <spec.jvm2008.report.hw.threading.enabled>n/a</spec.jvm2008.report.hw.threading.enabled>
    <spec.jvm2008.report.hw.threads.per.core>n/a</spec.jvm2008.report.hw.threads.per.core>
  </hw-info>
  <violations>
    <violation>Property specjvm.run.type must be 2 for publication.</violation>
    <violation>Property specjvm.fixed.operations not allowed in publication run.</violation>
    <violation>Property specjvm.miniter must be 1 for publication.</violation>
    <violation>Not a compliant sequence of benchmarks for publication.</violation>
    <violation>Property specjvm.run.initial.check must be true for publication.</violation>
    <violation>Property specjvm.maxiter must be 1 for publication.</violation>
    <violation>Checksum test failed for jar files (Checksum test failed on SPECjvm2008.jar). Kit may not be changed or rebuild.</violation>
  </violations>
  <configs>
    <config>specjvm.benchmark.warmup.time=0</config>
    <config>specjvm.benchmark.threads=4</config>
  </configs>
  <benchmark-results>
    <benchmark-result
      name="scimark.fft.large"
      category="null"
      args="scimark.fft"
      minIter="3"
      maxIter="3"
      numberBmThreads="4"
      numberOfLoops="10"
      bmType="multi"
      runMode="1">
      <warmup-result>
    </warmup-result>
    <iterations>
      <iteration-result
        iteration="1"
        expectedLoops="10"
        startTime="1539182553697"
        endTime="1539182574646"
        operations="40.0">
        <loops>
          <loop-result bmThreadId="2" loopCnt="1" startTime="1539182553703" endTime="1539182556032"/>
          <loop-result bmThreadId="4" loopCnt="1" startTime="1539182553703" endTime="1539182556066"/>
          <loop-result bmThreadId="1" loopCnt="1" startTime="1539182553700" endTime="1539182556218"/>
          <loop-result bmThreadId="3" loopCnt="1" startTime="1539182553703" endTime="1539182556266"/>
          <loop-result bmThreadId="2" loopCnt="2" startTime="1539182556032" endTime="1539182557760"/>
          <loop-result bmThreadId="4" loopCnt="2" startTime="1539182556066" endTime="1539182557898"/>
          <loop-result bmThreadId="3" loopCnt="2" startTime="1539182556266" endTime="1539182558364"/>
          <loop-result bmThreadId="1" loopCnt="2" startTime="1539182556218" endTime="1539182558425"/>
          <loop-result bmThreadId="2" loopCnt="3" startTime="1539182557760" endTime="1539182560059"/>
          <loop-result bmThreadId="4" loopCnt="3" startTime="1539182557898" endTime="1539182560244"/>
          <loop-result bmThreadId="3" loopCnt="3" startTime="1539182558364" endTime="1539182560586"/>
          <loop-result bmThreadId="1" loopCnt="3" startTime="1539182558425" endTime="1539182560822"/>
          <loop-result bmThreadId="2" loopCnt="4" startTime="1539182560059" endTime="1539182561905"/>
          <loop-result bmThreadId="4" loopCnt="4" startTime="1539182560244" endTime="1539182562120"/>
          <loop-result bmThreadId="3" loopCnt="4" startTime="1539182560586" endTime="1539182562276"/>
          <loop-result bmThreadId="1" loopCnt="4" startTime="1539182560822" endTime="1539182562590"/>
          <loop-result bmThreadId="2" loopCnt="5" startTime="1539182561905" endTime="1539182563916"/>
          <loop-result bmThreadId="4" loopCnt="5" startTime="1539182562120" endTime="1539182563955"/>
          <loop-result bmThreadId="3" loopCnt="5" startTime="1539182562276" endTime="1539182564341"/>
          <loop-result bmThreadId="1" loopCnt="5" startTime="1539182562590" endTime="1539182564527"/>
          <loop-result bmThreadId="4" loopCnt="6" startTime="1539182563955" endTime="1539182566167"/>
          <loop-result bmThreadId="2" loopCnt="6" startTime="1539182563916" endTime="1539182566320"/>
          <loop-result bmThreadId="3" loopCnt="6" startTime="1539182564341" endTime="1539182566439"/>
          <loop-result bmThreadId="1" loopCnt="6" startTime="1539182564527" endTime="1539182566623"/>
          <loop-result bmThreadId="4" loopCnt="7" startTime="1539182566167" endTime="1539182568021"/>
          <loop-result bmThreadId="2" loopCnt="7" startTime="1539182566320" endTime="1539182568047"/>
          <loop-result bmThreadId="3" loopCnt="7" startTime="1539182566439" endTime="1539182568329"/>
          <loop-result bmThreadId="1" loopCnt="7" startTime="1539182566623" endTime="1539182568622"/>
          <loop-result bmThreadId="2" loopCnt="8" startTime="1539182568047" endTime="1539182569883"/>
          <loop-result bmThreadId="4" loopCnt="8" startTime="1539182568021" endTime="1539182570003"/>
          <loop-result bmThreadId="3" loopCnt="8" startTime="1539182568329" endTime="1539182570440"/>
          <loop-result bmThreadId="1" loopCnt="8" startTime="1539182568622" endTime="1539182570965"/>
          <loop-result bmThreadId="4" loopCnt="9" startTime="1539182570003" endTime="1539182571957"/>
          <loop-result bmThreadId="2" loopCnt="9" startTime="1539182569883" endTime="1539182571979"/>
          <loop-result bmThreadId="3" loopCnt="9" startTime="1539182570440" endTime="1539182572448"/>
          <loop-result bmThreadId="1" loopCnt="9" startTime="1539182570965" endTime="1539182572724"/>
          <loop-result bmThreadId="2" loopCnt="10" startTime="1539182571979" endTime="1539182573717"/>
          <loop-result bmThreadId="4" loopCnt="10" startTime="1539182571957" endTime="1539182573980"/>
          <loop-result bmThreadId="1" loopCnt="10" startTime="1539182572724" endTime="1539182574309"/>
          <loop-result bmThreadId="3" loopCnt="10" startTime="1539182572448" endTime="1539182574646"/>
        </loops>
        <analyzers>
        </analyzers>
        <analyzer-results>
        </analyzer-results>
      </iteration-result>
      <iteration-result
        iteration="2"
        expectedLoops="10"
        startTime="1539182574658"
        endTime="1539182592440"
        operations="40.0">
        <loops>
          <loop-result bmThreadId="4" loopCnt="1" startTime="1539182574731" endTime="1539182576792"/>
          <loop-result bmThreadId="1" loopCnt="1" startTime="1539182574671" endTime="1539182576876"/>
          <loop-result bmThreadId="3" loopCnt="1" startTime="1539182574671" endTime="1539182576886"/>
          <loop-result bmThreadId="2" loopCnt="1" startTime="1539182574671" endTime="1539182577018"/>
          <loop-result bmThreadId="4" loopCnt="2" startTime="1539182576792" endTime="1539182578469"/>
          <loop-result bmThreadId="3" loopCnt="2" startTime="1539182576886" endTime="1539182578678"/>
          <loop-result bmThreadId="2" loopCnt="2" startTime="1539182577018" endTime="1539182578681"/>
          <loop-result bmThreadId="1" loopCnt="2" startTime="1539182576876" endTime="1539182578839"/>
          <loop-result bmThreadId="4" loopCnt="3" startTime="1539182578469" endTime="1539182579940"/>
          <loop-result bmThreadId="3" loopCnt="3" startTime="1539182578678" endTime="1539182580332"/>
          <loop-result bmThreadId="2" loopCnt="3" startTime="1539182578681" endTime="1539182580699"/>
          <loop-result bmThreadId="1" loopCnt="3" startTime="1539182578839" endTime="1539182580810"/>
          <loop-result bmThreadId="4" loopCnt="4" startTime="1539182579941" endTime="1539182581440"/>
          <loop-result bmThreadId="3" loopCnt="4" startTime="1539182580332" endTime="1539182582043"/>
          <loop-result bmThreadId="1" loopCnt="4" startTime="1539182580810" endTime="1539182582575"/>
          <loop-result bmThreadId="2" loopCnt="4" startTime="1539182580699" endTime="1539182582764"/>
          <loop-result bmThreadId="4" loopCnt="5" startTime="1539182581440" endTime="1539182582994"/>
          <loop-result bmThreadId="3" loopCnt="5" startTime="1539182582043" endTime="1539182583593"/>
          <loop-result bmThreadId="1" loopCnt="5" startTime="1539182582575" endTime="1539182584132"/>
          <loop-result bmThreadId="2" loopCnt="5" startTime="1539182582764" endTime="1539182584336"/>
          <loop-result bmThreadId="4" loopCnt="6" startTime="1539182582994" endTime="1539182584624"/>
          <loop-result bmThreadId="3" loopCnt="6" startTime="1539182583593" endTime="1539182585304"/>
          <loop-result bmThreadId="1" loopCnt="6" startTime="1539182584132" endTime="1539182585937"/>
          <loop-result bmThreadId="2" loopCnt="6" startTime="1539182584336" endTime="1539182586090"/>
          <loop-result bmThreadId="4" loopCnt="7" startTime="1539182584624" endTime="1539182586656"/>
          <loop-result bmThreadId="3" loopCnt="7" startTime="1539182585304" endTime="1539182586854"/>
          <loop-result bmThreadId="1" loopCnt="7" startTime="1539182585937" endTime="1539182587461"/>
          <loop-result bmThreadId="2" loopCnt="7" startTime="1539182586090" endTime="1539182587668"/>
          <loop-result bmThreadId="4" loopCnt="8" startTime="1539182586656" endTime="1539182588235"/>
          <loop-result bmThreadId="3" loopCnt="8" startTime="1539182586854" endTime="1539182588403"/>
          <loop-result bmThreadId="1" loopCnt="8" startTime="1539182587461" endTime="1539182588958"/>
          <loop-result bmThreadId="2" loopCnt="8" startTime="1539182587668" endTime="1539182589232"/>
          <loop-result bmThreadId="4" loopCnt="9" startTime="1539182588235" endTime="1539182589816"/>
          <loop-result bmThreadId="3" loopCnt="9" startTime="1539182588403" endTime="1539182589957"/>
          <loop-result bmThreadId="1" loopCnt="9" startTime="1539182588958" endTime="1539182590451"/>
          <loop-result bmThreadId="2" loopCnt="9" startTime="1539182589232" endTime="1539182590792"/>
          <loop-result bmThreadId="4" loopCnt="10" startTime="1539182589816" endTime="1539182591389"/>
          <loop-result bmThreadId="3" loopCnt="10" startTime="1539182589957" endTime="1539182591527"/>
          <loop-result bmThreadId="1" loopCnt="10" startTime="1539182590451" endTime="1539182591948"/>
          <loop-result bmThreadId="2" loopCnt="10" startTime="1539182590792" endTime="1539182592440"/>
        </loops>
        <analyzers>
        </analyzers>
        <analyzer-results>
        </analyzer-results>
      </iteration-result>
      <iteration-result
        iteration="3"
        expectedLoops="10"
        startTime="1539182592442"
        endTime="1539182612069"
        operations="40.0">
        <loops>
          <loop-result bmThreadId="4" loopCnt="1" startTime="1539182592444" endTime="1539182594494"/>
          <loop-result bmThreadId="1" loopCnt="1" startTime="1539182592443" endTime="1539182594545"/>
          <loop-result bmThreadId="3" loopCnt="1" startTime="1539182592443" endTime="1539182594611"/>
          <loop-result bmThreadId="2" loopCnt="1" startTime="1539182592443" endTime="1539182594740"/>
          <loop-result bmThreadId="3" loopCnt="2" startTime="1539182594611" endTime="1539182596116"/>
          <loop-result bmThreadId="2" loopCnt="2" startTime="1539182594740" endTime="1539182596240"/>
          <loop-result bmThreadId="1" loopCnt="2" startTime="1539182594545" endTime="1539182596465"/>
          <loop-result bmThreadId="4" loopCnt="2" startTime="1539182594494" endTime="1539182596465"/>
          <loop-result bmThreadId="3" loopCnt="3" startTime="1539182596116" endTime="1539182597845"/>
          <loop-result bmThreadId="2" loopCnt="3" startTime="1539182596240" endTime="1539182598031"/>
          <loop-result bmThreadId="1" loopCnt="3" startTime="1539182596465" endTime="1539182598495"/>
          <loop-result bmThreadId="4" loopCnt="3" startTime="1539182596465" endTime="1539182598649"/>
          <loop-result bmThreadId="3" loopCnt="4" startTime="1539182597845" endTime="1539182599660"/>
          <loop-result bmThreadId="2" loopCnt="4" startTime="1539182598031" endTime="1539182600054"/>
          <loop-result bmThreadId="1" loopCnt="4" startTime="1539182598495" endTime="1539182600248"/>
          <loop-result bmThreadId="4" loopCnt="4" startTime="1539182598649" endTime="1539182600540"/>
          <loop-result bmThreadId="3" loopCnt="5" startTime="1539182599660" endTime="1539182601421"/>
          <loop-result bmThreadId="2" loopCnt="5" startTime="1539182600054" endTime="1539182601921"/>
          <loop-result bmThreadId="1" loopCnt="5" startTime="1539182600248" endTime="1539182602250"/>
          <loop-result bmThreadId="4" loopCnt="5" startTime="1539182600540" endTime="1539182602710"/>
          <loop-result bmThreadId="3" loopCnt="6" startTime="1539182601421" endTime="1539182603393"/>
          <loop-result bmThreadId="2" loopCnt="6" startTime="1539182601921" endTime="1539182604038"/>
          <loop-result bmThreadId="1" loopCnt="6" startTime="1539182602250" endTime="1539182604135"/>
          <loop-result bmThreadId="4" loopCnt="6" startTime="1539182602710" endTime="1539182604741"/>
          <loop-result bmThreadId="3" loopCnt="7" startTime="1539182603393" endTime="1539182605337"/>
          <loop-result bmThreadId="2" loopCnt="7" startTime="1539182604038" endTime="1539182605794"/>
          <loop-result bmThreadId="1" loopCnt="7" startTime="1539182604135" endTime="1539182606032"/>
          <loop-result bmThreadId="4" loopCnt="7" startTime="1539182604741" endTime="1539182607089"/>
          <loop-result bmThreadId="3" loopCnt="8" startTime="1539182605337" endTime="1539182607233"/>
          <loop-result bmThreadId="2" loopCnt="8" startTime="1539182605794" endTime="1539182607404"/>
          <loop-result bmThreadId="1" loopCnt="8" startTime="1539182606032" endTime="1539182607654"/>
          <loop-result bmThreadId="4" loopCnt="8" startTime="1539182607089" endTime="1539182608916"/>
          <loop-result bmThreadId="3" loopCnt="9" startTime="1539182607233" endTime="1539182609004"/>
          <loop-result bmThreadId="2" loopCnt="9" startTime="1539182607405" endTime="1539182609229"/>
          <loop-result bmThreadId="1" loopCnt="9" startTime="1539182607654" endTime="1539182609625"/>
          <loop-result bmThreadId="3" loopCnt="10" startTime="1539182609004" endTime="1539182610558"/>
          <loop-result bmThreadId="4" loopCnt="9" startTime="1539182608916" endTime="1539182610615"/>
          <loop-result bmThreadId="2" loopCnt="10" startTime="1539182609229" endTime="1539182610779"/>
          <loop-result bmThreadId="1" loopCnt="10" startTime="1539182609625" endTime="1539182611382"/>
          <loop-result bmThreadId="4" loopCnt="10" startTime="1539182610615" endTime="1539182612069"/>
        </loops>
        <analyzers>
        </analyzers>
        <analyzer-results>
        </analyzer-results>
      </iteration-result>
    </iterations>
    </benchmark-result>
  </benchmark-results>
</specjvm-result>
