<?xml version="1.0" encoding="ISO-8859-1" ?>
<specjvm-result>
  <workload>SPECjvm2008 Peak</workload>
  <suite-build-version>SPECjvm2008 1.01 (20090519)</suite-build-version>
  <run-info>
    <spec.jvm2008.report.run.location>n/a</spec.jvm2008.report.run.location>
    <spec.jvm2008.report.run.submitter.url>n/a</spec.jvm2008.report.run.submitter.url>
    <spec.jvm2008.report.run.license>n/a</spec.jvm2008.report.run.license>
    <spec.jvm2008.report.run.tester>psu</spec.jvm2008.report.run.tester>
    <spec.jvm2008.report.run.date>Wed Oct 10 10:43:48 EDT 2018</spec.jvm2008.report.run.date>
    <spec.jvm2008.report.run.submitter>n/a</spec.jvm2008.report.run.submitter>
  </run-info>
  <jvm-info>
    <spec.jvm2008.report.jvm.vendor>Oracle Corporation</spec.jvm2008.report.jvm.vendor>
    <spec.jvm2008.report.jvm.startup.launcher>default</spec.jvm2008.report.jvm.startup.launcher>
    <spec.jvm2008.report.jvm.other.tuning> </spec.jvm2008.report.jvm.other.tuning>
    <spec.jvm2008.report.jvm.vendor.url>http://java.oracle.com/</spec.jvm2008.report.jvm.vendor.url>
    <spec.jvm2008.report.jvm.command.line.max.heap.size>n/a</spec.jvm2008.report.jvm.command.line.max.heap.size>
    <spec.jvm2008.report.jvm.version>11+28 mixed mode</spec.jvm2008.report.jvm.version>
    <spec.jvm2008.report.jvm.command.line>n/a</spec.jvm2008.report.jvm.command.line>
    <spec.jvm2008.report.jvm.command.line.initial.heap.size>n/a</spec.jvm2008.report.jvm.command.line.initial.heap.size>
    <spec.jvm2008.report.jvm.boot.class.path>n/a</spec.jvm2008.report.jvm.boot.class.path>
    <spec.jvm2008.report.jvm.name>Java HotSpot(TM) 64-Bit Server VM</spec.jvm2008.report.jvm.name>
    <spec.jvm2008.report.jvm.app.class.path>SPECjvm2008.jar</spec.jvm2008.report.jvm.app.class.path>
    <spec.jvm2008.report.jvm.available.date>n/a</spec.jvm2008.report.jvm.available.date>
    <spec.jvm2008.report.jvm.java.specification>11</spec.jvm2008.report.jvm.java.specification>
    <spec.jvm2008.report.jvm.address.bits>64</spec.jvm2008.report.jvm.address.bits>
    <spec.jvm2008.report.jvm.startup.command.line> </spec.jvm2008.report.jvm.startup.command.line>
  </jvm-info>
  <sw-info>
    <spec.jvm2008.report.sw.other.available> </spec.jvm2008.report.sw.other.available>
    <spec.jvm2008.report.os.tuning> </spec.jvm2008.report.os.tuning>
    <spec.jvm2008.report.sw.filesystem>n/a</spec.jvm2008.report.sw.filesystem>
    <spec.jvm2008.report.os.available.date>n/a</spec.jvm2008.report.os.available.date>
    <spec.jvm2008.report.sw.other.tuning> </spec.jvm2008.report.sw.other.tuning>
    <spec.jvm2008.report.os.address.bits>n/a</spec.jvm2008.report.os.address.bits>
    <spec.jvm2008.report.sw.other.name> </spec.jvm2008.report.sw.other.name>
    <spec.jvm2008.report.os.name>Linux</spec.jvm2008.report.os.name>
  </sw-info>
  <hw-info>
    <spec.jvm2008.report.hw.available>n/a</spec.jvm2008.report.hw.available>
    <spec.jvm2008.report.hw.vendor.url>n/a</spec.jvm2008.report.hw.vendor.url>
    <spec.jvm2008.report.hw.number.of.cores.per.chip>n/a</spec.jvm2008.report.hw.number.of.cores.per.chip>
    <spec.jvm2008.report.hw.address.bits>n/a</spec.jvm2008.report.hw.address.bits>
    <spec.jvm2008.report.hw.cpu.speed>n/a</spec.jvm2008.report.hw.cpu.speed>
    <spec.jvm2008.report.hw.cpu.cache.other>n/a</spec.jvm2008.report.hw.cpu.cache.other>
    <spec.jvm2008.report.hw.cpu.vendor.url>n/a</spec.jvm2008.report.hw.cpu.vendor.url>
    <spec.jvm2008.report.hw.cpu.cache.l2>n/a</spec.jvm2008.report.hw.cpu.cache.l2>
    <spec.jvm2008.report.hw.cpu.cache.l1>n/a</spec.jvm2008.report.hw.cpu.cache.l1>
    <spec.jvm2008.report.hw.logical.cpus>n/a</spec.jvm2008.report.hw.logical.cpus>
    <spec.jvm2008.report.hw.number.of.chips>n/a</spec.jvm2008.report.hw.number.of.chips>
    <spec.jvm2008.report.hw.memory.details>n/a</spec.jvm2008.report.hw.memory.details>
    <spec.jvm2008.report.hw.details.other>n/a</spec.jvm2008.report.hw.details.other>
    <spec.jvm2008.report.hw.cpu.vendor>n/a</spec.jvm2008.report.hw.cpu.vendor>
    <spec.jvm2008.report.hw.model>n/a</spec.jvm2008.report.hw.model>
    <spec.jvm2008.report.hw.number.of.cores>n/a</spec.jvm2008.report.hw.number.of.cores>
    <spec.jvm2008.report.hw.memory.size>n/a</spec.jvm2008.report.hw.memory.size>
    <spec.jvm2008.report.hw.vendor>n/a</spec.jvm2008.report.hw.vendor>
    <spec.jvm2008.report.hw.cpu.name>n/a</spec.jvm2008.report.hw.cpu.name>
    <spec.jvm2008.report.hw.threading.enabled>n/a</spec.jvm2008.report.hw.threading.enabled>
    <spec.jvm2008.report.hw.threads.per.core>n/a</spec.jvm2008.report.hw.threads.per.core>
  </hw-info>
  <violations>
    <violation>Property specjvm.run.type must be 2 for publication.</violation>
    <violation>Property specjvm.fixed.operations not allowed in publication run.</violation>
    <violation>Property specjvm.miniter must be 1 for publication.</violation>
    <violation>Not a compliant sequence of benchmarks for publication.</violation>
    <violation>Property specjvm.run.initial.check must be true for publication.</violation>
    <violation>Property specjvm.maxiter must be 1 for publication.</violation>
    <violation>Checksum test failed for jar files (Checksum test failed on SPECjvm2008.jar). Kit may not be changed or rebuild.</violation>
  </violations>
  <configs>
    <config>specjvm.benchmark.warmup.time=0</config>
    <config>specjvm.benchmark.threads=4</config>
  </configs>
  <benchmark-results>
    <benchmark-result
      name="scimark.fft.large"
      category="null"
      args="scimark.fft"
      minIter="3"
      maxIter="3"
      numberBmThreads="4"
      numberOfLoops="10"
      bmType="multi"
      runMode="1">
      <warmup-result>
    </warmup-result>
    <iterations>
      <iteration-result
        iteration="1"
        expectedLoops="10"
        startTime="1539182630955"
        endTime="1539182652292"
        operations="40.0">
        <loops>
          <loop-result bmThreadId="2" loopCnt="1" startTime="1539182630957" endTime="1539182633072"/>
          <loop-result bmThreadId="3" loopCnt="1" startTime="1539182630958" endTime="1539182633199"/>
          <loop-result bmThreadId="4" loopCnt="1" startTime="1539182630957" endTime="1539182633343"/>
          <loop-result bmThreadId="1" loopCnt="1" startTime="1539182630957" endTime="1539182633346"/>
          <loop-result bmThreadId="2" loopCnt="2" startTime="1539182633072" endTime="1539182634976"/>
          <loop-result bmThreadId="3" loopCnt="2" startTime="1539182633199" endTime="1539182635016"/>
          <loop-result bmThreadId="4" loopCnt="2" startTime="1539182633343" endTime="1539182635468"/>
          <loop-result bmThreadId="1" loopCnt="2" startTime="1539182633346" endTime="1539182635488"/>
          <loop-result bmThreadId="3" loopCnt="3" startTime="1539182635016" endTime="1539182637099"/>
          <loop-result bmThreadId="2" loopCnt="3" startTime="1539182634976" endTime="1539182637109"/>
          <loop-result bmThreadId="4" loopCnt="3" startTime="1539182635468" endTime="1539182637528"/>
          <loop-result bmThreadId="1" loopCnt="3" startTime="1539182635488" endTime="1539182637610"/>
          <loop-result bmThreadId="3" loopCnt="4" startTime="1539182637099" endTime="1539182639129"/>
          <loop-result bmThreadId="2" loopCnt="4" startTime="1539182637109" endTime="1539182639241"/>
          <loop-result bmThreadId="4" loopCnt="4" startTime="1539182637528" endTime="1539182639389"/>
          <loop-result bmThreadId="1" loopCnt="4" startTime="1539182637610" endTime="1539182639719"/>
          <loop-result bmThreadId="3" loopCnt="5" startTime="1539182639129" endTime="1539182640945"/>
          <loop-result bmThreadId="4" loopCnt="5" startTime="1539182639389" endTime="1539182641331"/>
          <loop-result bmThreadId="2" loopCnt="5" startTime="1539182639241" endTime="1539182641339"/>
          <loop-result bmThreadId="1" loopCnt="5" startTime="1539182639720" endTime="1539182641794"/>
          <loop-result bmThreadId="3" loopCnt="6" startTime="1539182640945" endTime="1539182642924"/>
          <loop-result bmThreadId="4" loopCnt="6" startTime="1539182641331" endTime="1539182643413"/>
          <loop-result bmThreadId="2" loopCnt="6" startTime="1539182641339" endTime="1539182643466"/>
          <loop-result bmThreadId="1" loopCnt="6" startTime="1539182641794" endTime="1539182643924"/>
          <loop-result bmThreadId="3" loopCnt="7" startTime="1539182642924" endTime="1539182645038"/>
          <loop-result bmThreadId="4" loopCnt="7" startTime="1539182643413" endTime="1539182645557"/>
          <loop-result bmThreadId="2" loopCnt="7" startTime="1539182643466" endTime="1539182645590"/>
          <loop-result bmThreadId="1" loopCnt="7" startTime="1539182643924" endTime="1539182646078"/>
          <loop-result bmThreadId="3" loopCnt="8" startTime="1539182645038" endTime="1539182647198"/>
          <loop-result bmThreadId="4" loopCnt="8" startTime="1539182645557" endTime="1539182647697"/>
          <loop-result bmThreadId="2" loopCnt="8" startTime="1539182645590" endTime="1539182647717"/>
          <loop-result bmThreadId="1" loopCnt="8" startTime="1539182646078" endTime="1539182648221"/>
          <loop-result bmThreadId="3" loopCnt="9" startTime="1539182647198" endTime="1539182649309"/>
          <loop-result bmThreadId="4" loopCnt="9" startTime="1539182647697" endTime="1539182649847"/>
          <loop-result bmThreadId="2" loopCnt="9" startTime="1539182647717" endTime="1539182649887"/>
          <loop-result bmThreadId="1" loopCnt="9" startTime="1539182648221" endTime="1539182650360"/>
          <loop-result bmThreadId="3" loopCnt="10" startTime="1539182649309" endTime="1539182651435"/>
          <loop-result bmThreadId="4" loopCnt="10" startTime="1539182649847" endTime="1539182651954"/>
          <loop-result bmThreadId="2" loopCnt="10" startTime="1539182649887" endTime="1539182651963"/>
          <loop-result bmThreadId="1" loopCnt="10" startTime="1539182650360" endTime="1539182652292"/>
        </loops>
        <analyzers>
        </analyzers>
        <analyzer-results>
        </analyzer-results>
      </iteration-result>
      <iteration-result
        iteration="2"
        expectedLoops="10"
        startTime="1539182652303"
        endTime="1539182672158"
        operations="40.0">
        <loops>
          <loop-result bmThreadId="1" loopCnt="1" startTime="1539182652304" endTime="1539182654269"/>
          <loop-result bmThreadId="2" loopCnt="1" startTime="1539182652304" endTime="1539182654464"/>
          <loop-result bmThreadId="3" loopCnt="1" startTime="1539182652307" endTime="1539182654561"/>
          <loop-result bmThreadId="4" loopCnt="1" startTime="1539182652320" endTime="1539182654573"/>
          <loop-result bmThreadId="1" loopCnt="2" startTime="1539182654269" endTime="1539182656105"/>
          <loop-result bmThreadId="2" loopCnt="2" startTime="1539182654464" endTime="1539182656265"/>
          <loop-result bmThreadId="3" loopCnt="2" startTime="1539182654561" endTime="1539182656508"/>
          <loop-result bmThreadId="4" loopCnt="2" startTime="1539182654573" endTime="1539182656558"/>
          <loop-result bmThreadId="2" loopCnt="3" startTime="1539182656265" endTime="1539182658134"/>
          <loop-result bmThreadId="1" loopCnt="3" startTime="1539182656105" endTime="1539182658140"/>
          <loop-result bmThreadId="3" loopCnt="3" startTime="1539182656508" endTime="1539182658346"/>
          <loop-result bmThreadId="4" loopCnt="3" startTime="1539182656558" endTime="1539182658661"/>
          <loop-result bmThreadId="2" loopCnt="4" startTime="1539182658134" endTime="1539182660264"/>
          <loop-result bmThreadId="3" loopCnt="4" startTime="1539182658346" endTime="1539182660314"/>
          <loop-result bmThreadId="1" loopCnt="4" startTime="1539182658140" endTime="1539182660317"/>
          <loop-result bmThreadId="4" loopCnt="4" startTime="1539182658661" endTime="1539182660745"/>
          <loop-result bmThreadId="2" loopCnt="5" startTime="1539182660264" endTime="1539182662273"/>
          <loop-result bmThreadId="3" loopCnt="5" startTime="1539182660314" endTime="1539182662431"/>
          <loop-result bmThreadId="1" loopCnt="5" startTime="1539182660317" endTime="1539182662435"/>
          <loop-result bmThreadId="4" loopCnt="5" startTime="1539182660745" endTime="1539182662836"/>
          <loop-result bmThreadId="2" loopCnt="6" startTime="1539182662273" endTime="1539182664261"/>
          <loop-result bmThreadId="3" loopCnt="6" startTime="1539182662431" endTime="1539182664474"/>
          <loop-result bmThreadId="1" loopCnt="6" startTime="1539182662435" endTime="1539182664498"/>
          <loop-result bmThreadId="4" loopCnt="6" startTime="1539182662836" endTime="1539182664794"/>
          <loop-result bmThreadId="2" loopCnt="7" startTime="1539182664261" endTime="1539182666085"/>
          <loop-result bmThreadId="3" loopCnt="7" startTime="1539182664474" endTime="1539182666324"/>
          <loop-result bmThreadId="1" loopCnt="7" startTime="1539182664498" endTime="1539182666408"/>
          <loop-result bmThreadId="4" loopCnt="7" startTime="1539182664794" endTime="1539182666652"/>
          <loop-result bmThreadId="2" loopCnt="8" startTime="1539182666085" endTime="1539182667888"/>
          <loop-result bmThreadId="3" loopCnt="8" startTime="1539182666324" endTime="1539182668134"/>
          <loop-result bmThreadId="1" loopCnt="8" startTime="1539182666408" endTime="1539182668268"/>
          <loop-result bmThreadId="4" loopCnt="8" startTime="1539182666652" endTime="1539182668481"/>
          <loop-result bmThreadId="2" loopCnt="9" startTime="1539182667888" endTime="1539182669739"/>
          <loop-result bmThreadId="3" loopCnt="9" startTime="1539182668134" endTime="1539182669946"/>
          <loop-result bmThreadId="1" loopCnt="9" startTime="1539182668268" endTime="1539182670126"/>
          <loop-result bmThreadId="4" loopCnt="9" startTime="1539182668481" endTime="1539182670339"/>
          <loop-result bmThreadId="2" loopCnt="10" startTime="1539182669739" endTime="1539182671584"/>
          <loop-result bmThreadId="3" loopCnt="10" startTime="1539182669946" endTime="1539182671785"/>
          <loop-result bmThreadId="1" loopCnt="10" startTime="1539182670126" endTime="1539182671963"/>
          <loop-result bmThreadId="4" loopCnt="10" startTime="1539182670339" endTime="1539182672158"/>
        </loops>
        <analyzers>
        </analyzers>
        <analyzer-results>
        </analyzer-results>
      </iteration-result>
      <iteration-result
        iteration="3"
        expectedLoops="10"
        startTime="1539182672164"
        endTime="1539182693233"
        operations="40.0">
        <loops>
          <loop-result bmThreadId="1" loopCnt="1" startTime="1539182672164" endTime="1539182674105"/>
          <loop-result bmThreadId="4" loopCnt="1" startTime="1539182672165" endTime="1539182674248"/>
          <loop-result bmThreadId="2" loopCnt="1" startTime="1539182672164" endTime="1539182674463"/>
          <loop-result bmThreadId="3" loopCnt="1" startTime="1539182672164" endTime="1539182674471"/>
          <loop-result bmThreadId="1" loopCnt="2" startTime="1539182674105" endTime="1539182676027"/>
          <loop-result bmThreadId="4" loopCnt="2" startTime="1539182674248" endTime="1539182676094"/>
          <loop-result bmThreadId="2" loopCnt="2" startTime="1539182674463" endTime="1539182676510"/>
          <loop-result bmThreadId="3" loopCnt="2" startTime="1539182674471" endTime="1539182676526"/>
          <loop-result bmThreadId="1" loopCnt="3" startTime="1539182676027" endTime="1539182678091"/>
          <loop-result bmThreadId="4" loopCnt="3" startTime="1539182676094" endTime="1539182678143"/>
          <loop-result bmThreadId="2" loopCnt="3" startTime="1539182676510" endTime="1539182678616"/>
          <loop-result bmThreadId="3" loopCnt="3" startTime="1539182676526" endTime="1539182678663"/>
          <loop-result bmThreadId="1" loopCnt="4" startTime="1539182678091" endTime="1539182680175"/>
          <loop-result bmThreadId="4" loopCnt="4" startTime="1539182678143" endTime="1539182680182"/>
          <loop-result bmThreadId="2" loopCnt="4" startTime="1539182678616" endTime="1539182680719"/>
          <loop-result bmThreadId="3" loopCnt="4" startTime="1539182678663" endTime="1539182680754"/>
          <loop-result bmThreadId="1" loopCnt="5" startTime="1539182680175" endTime="1539182682210"/>
          <loop-result bmThreadId="4" loopCnt="5" startTime="1539182680182" endTime="1539182682272"/>
          <loop-result bmThreadId="2" loopCnt="5" startTime="1539182680719" endTime="1539182682905"/>
          <loop-result bmThreadId="3" loopCnt="5" startTime="1539182680754" endTime="1539182682907"/>
          <loop-result bmThreadId="1" loopCnt="6" startTime="1539182682210" endTime="1539182684058"/>
          <loop-result bmThreadId="4" loopCnt="6" startTime="1539182682272" endTime="1539182684144"/>
          <loop-result bmThreadId="2" loopCnt="6" startTime="1539182682905" endTime="1539182684960"/>
          <loop-result bmThreadId="3" loopCnt="6" startTime="1539182682907" endTime="1539182684966"/>
          <loop-result bmThreadId="1" loopCnt="7" startTime="1539182684058" endTime="1539182686043"/>
          <loop-result bmThreadId="4" loopCnt="7" startTime="1539182684144" endTime="1539182686066"/>
          <loop-result bmThreadId="2" loopCnt="7" startTime="1539182684960" endTime="1539182687072"/>
          <loop-result bmThreadId="3" loopCnt="7" startTime="1539182684966" endTime="1539182687080"/>
          <loop-result bmThreadId="1" loopCnt="8" startTime="1539182686043" endTime="1539182688121"/>
          <loop-result bmThreadId="4" loopCnt="8" startTime="1539182686066" endTime="1539182688145"/>
          <loop-result bmThreadId="2" loopCnt="8" startTime="1539182687072" endTime="1539182689200"/>
          <loop-result bmThreadId="3" loopCnt="8" startTime="1539182687080" endTime="1539182689220"/>
          <loop-result bmThreadId="1" loopCnt="9" startTime="1539182688121" endTime="1539182690227"/>
          <loop-result bmThreadId="4" loopCnt="9" startTime="1539182688145" endTime="1539182690234"/>
          <loop-result bmThreadId="2" loopCnt="9" startTime="1539182689200" endTime="1539182691300"/>
          <loop-result bmThreadId="3" loopCnt="9" startTime="1539182689220" endTime="1539182691321"/>
          <loop-result bmThreadId="1" loopCnt="10" startTime="1539182690227" endTime="1539182692324"/>
          <loop-result bmThreadId="4" loopCnt="10" startTime="1539182690234" endTime="1539182692331"/>
          <loop-result bmThreadId="2" loopCnt="10" startTime="1539182691300" endTime="1539182693220"/>
          <loop-result bmThreadId="3" loopCnt="10" startTime="1539182691321" endTime="1539182693233"/>
        </loops>
        <analyzers>
        </analyzers>
        <analyzer-results>
        </analyzer-results>
      </iteration-result>
    </iterations>
    </benchmark-result>
  </benchmark-results>
</specjvm-result>
