00400000-00401000 r-xp 00000000 08:01 15347318                           /home/psu/tools/java/jdk10/install/jvm/openjdk-10-internal/bin/java
00601000-00602000 r--p 00001000 08:01 15347318                           /home/psu/tools/java/jdk10/install/jvm/openjdk-10-internal/bin/java
00602000-00603000 rw-p 00002000 08:01 15347318                           /home/psu/tools/java/jdk10/install/jvm/openjdk-10-internal/bin/java
00f81000-00fc8000 rw-p 00000000 00:00 0                                  [heap]
3d2000000-411000000 rw-p 00000000 00:00 0 
411000000-7c0000000 ---p 00000000 00:00 0 
7c0000000-7c0060000 rw-p 00000000 00:00 0 
7c0060000-800000000 ---p 00000000 00:00 0 
7fab48000000-7fab48021000 rw-p 00000000 00:00 0 
7fab48021000-7fab4c000000 ---p 00000000 00:00 0 
7fab50000000-7fab50021000 rw-p 00000000 00:00 0 
7fab50021000-7fab54000000 ---p 00000000 00:00 0 
7fab54000000-7fab54021000 rw-p 00000000 00:00 0 
7fab54021000-7fab58000000 ---p 00000000 00:00 0 
7fab58000000-7fab58032000 rw-p 00000000 00:00 0 
7fab58032000-7fab5c000000 ---p 00000000 00:00 0 
7fab5c000000-7fab5c05e000 rw-p 00000000 00:00 0 
7fab5c05e000-7fab60000000 ---p 00000000 00:00 0 
7fab60000000-7fab6005e000 rw-p 00000000 00:00 0 
7fab6005e000-7fab64000000 ---p 00000000 00:00 0 
7fab64000000-7fab64021000 rw-p 00000000 00:00 0 
7fab64021000-7fab68000000 ---p 00000000 00:00 0 
7fab68000000-7fab68021000 rw-p 00000000 00:00 0 
7fab68021000-7fab6c000000 ---p 00000000 00:00 0 
7fab6c000000-7fab6c021000 rw-p 00000000 00:00 0 
7fab6c021000-7fab70000000 ---p 00000000 00:00 0 
7fab70000000-7fab70021000 rw-p 00000000 00:00 0 
7fab70021000-7fab74000000 ---p 00000000 00:00 0 
7fab74000000-7fab74021000 rw-p 00000000 00:00 0 
7fab74021000-7fab78000000 ---p 00000000 00:00 0 
7fab78000000-7fab78021000 rw-p 00000000 00:00 0 
7fab78021000-7fab7c000000 ---p 00000000 00:00 0 
7fab7c000000-7fab7c021000 rw-p 00000000 00:00 0 
7fab7c021000-7fab80000000 ---p 00000000 00:00 0 
7fab80000000-7fab80021000 rw-p 00000000 00:00 0 
7fab80021000-7fab84000000 ---p 00000000 00:00 0 
7fab84000000-7fab84021000 rw-p 00000000 00:00 0 
7fab84021000-7fab88000000 ---p 00000000 00:00 0 
7fab88000000-7fab88021000 rw-p 00000000 00:00 0 
7fab88021000-7fab8c000000 ---p 00000000 00:00 0 
7fab8c000000-7fab8c021000 rw-p 00000000 00:00 0 
7fab8c021000-7fab90000000 ---p 00000000 00:00 0 
7fab90000000-7fab90021000 rw-p 00000000 00:00 0 
7fab90021000-7fab94000000 ---p 00000000 00:00 0 
7fab94000000-7fab94021000 rw-p 00000000 00:00 0 
7fab94021000-7fab98000000 ---p 00000000 00:00 0 
7fab98000000-7fab98021000 rw-p 00000000 00:00 0 
7fab98021000-7fab9c000000 ---p 00000000 00:00 0 
7fab9ce21000-7fab9cf22000 rw-p 00000000 00:00 0 
7fab9cf22000-7fab9cf23000 ---p 00000000 00:00 0 
7fab9cf23000-7fab9d023000 rw-p 00000000 00:00 0 
7fab9d023000-7fab9d027000 ---p 00000000 00:00 0 
7fab9d027000-7fab9d124000 rw-p 00000000 00:00 0 
7fab9d124000-7fab9d128000 ---p 00000000 00:00 0 
7fab9d128000-7fab9d225000 rw-p 00000000 00:00 0 
7fab9d225000-7fab9d229000 ---p 00000000 00:00 0 
7fab9d229000-7fab9d326000 rw-p 00000000 00:00 0 
7fab9d326000-7fab9d32a000 ---p 00000000 00:00 0 
7fab9d32a000-7fab9d427000 rw-p 00000000 00:00 0 
7fab9d427000-7fab9d42b000 ---p 00000000 00:00 0 
7fab9d42b000-7fab9d528000 rw-p 00000000 00:00 0 
7fab9d528000-7fab9d800000 r--p 00000000 08:01 40633977                   /usr/lib/locale/locale-archive
7fab9d800000-7fab9dc00000 rw-p 00000000 00:00 0 
7fab9dc00000-7fab9e000000 ---p 00000000 00:00 0 
7fab9e000000-7faba0000000 rwxp 00000000 00:00 0 
7faba0000000-7faba0021000 rw-p 00000000 00:00 0 
7faba0021000-7faba4000000 ---p 00000000 00:00 0 
7faba4000000-7faba4021000 rw-p 00000000 00:00 0 
7faba4021000-7faba8000000 ---p 00000000 00:00 0 
7faba8000000-7faba8021000 rw-p 00000000 00:00 0 
7faba8021000-7fabac000000 ---p 00000000 00:00 0 
7fabac082000-7fabac086000 ---p 00000000 00:00 0 
7fabac086000-7fabac183000 rw-p 00000000 00:00 0 
7fabac183000-7fabac187000 ---p 00000000 00:00 0 
7fabac187000-7fabac284000 rw-p 00000000 00:00 0 
7fabac284000-7fabac288000 ---p 00000000 00:00 0 
7fabac288000-7fabac385000 rw-p 00000000 00:00 0 
7fabac385000-7fabac389000 ---p 00000000 00:00 0 
7fabac389000-7fabac486000 rw-p 00000000 00:00 0 
7fabac486000-7fabac487000 ---p 00000000 00:00 0 
7fabac487000-7fabac5fd000 rw-p 00000000 00:00 0 
7fabac5fd000-7fabac5fe000 ---p 00000000 00:00 0 
7fabac5fe000-7fabac6fe000 rw-p 00000000 00:00 0 
7fabac6fe000-7fabac6ff000 ---p 00000000 00:00 0 
7fabac6ff000-7fabac7ff000 rw-p 00000000 00:00 0 
7fabac7ff000-7fabac800000 ---p 00000000 00:00 0 
7fabac800000-7fabad8c0000 rw-p 00000000 00:00 0 
7fabad8c0000-7fabbc480000 ---p 00000000 00:00 0 
7fabbc480000-7fabbd440000 rw-p 00000000 00:00 0 
7fabbd440000-7fabcc000000 ---p 00000000 00:00 0 
7fabcc000000-7fabcc021000 rw-p 00000000 00:00 0 
7fabcc021000-7fabd0000000 ---p 00000000 00:00 0 
7fabd001f000-7fabd0020000 ---p 00000000 00:00 0 
7fabd0020000-7fabd0318000 rw-p 00000000 00:00 0 
7fabd0318000-7fabd2090000 ---p 00000000 00:00 0 
7fabd2090000-7fabd2288000 rw-p 00000000 00:00 0 
7fabd2288000-7fabd4000000 ---p 00000000 00:00 0 
7fabd4000000-7fabd4021000 rw-p 00000000 00:00 0 
7fabd4021000-7fabd8000000 ---p 00000000 00:00 0 
7fabd8000000-7fabd8021000 rw-p 00000000 00:00 0 
7fabd8021000-7fabdc000000 ---p 00000000 00:00 0 
7fabdc000000-7fabdc021000 rw-p 00000000 00:00 0 
7fabdc021000-7fabe0000000 ---p 00000000 00:00 0 
7fabe0000000-7fabe0021000 rw-p 00000000 00:00 0 
7fabe0021000-7fabe4000000 ---p 00000000 00:00 0 
7fabe4000000-7fabe4021000 rw-p 00000000 00:00 0 
7fabe4021000-7fabe8000000 ---p 00000000 00:00 0 
7fabe8000000-7fabe8021000 rw-p 00000000 00:00 0 
7fabe8021000-7fabec000000 ---p 00000000 00:00 0 
7fabec000000-7fabec021000 rw-p 00000000 00:00 0 
7fabec021000-7fabf0000000 ---p 00000000 00:00 0 
7fabf0030000-7fabf0031000 ---p 00000000 00:00 0 
7fabf0031000-7fabf0131000 rw-p 00000000 00:00 0 
7fabf0131000-7fabf0132000 ---p 00000000 00:00 0 
7fabf0132000-7fabf0232000 rw-p 00000000 00:00 0 
7fabf0232000-7fabf0233000 ---p 00000000 00:00 0 
7fabf0233000-7fabf0333000 rw-p 00000000 00:00 0 
7fabf0333000-7fabf0334000 ---p 00000000 00:00 0 
7fabf0334000-7fabf0434000 rw-p 00000000 00:00 0 
7fabf0434000-7fabf0435000 ---p 00000000 00:00 0 
7fabf0435000-7fabf0d3d000 rw-p 00000000 00:00 0 
7fabf0d3d000-7fabf0d3e000 ---p 00000000 00:00 0 
7fabf0d3e000-7fabf0e3e000 rw-p 00000000 00:00 0 
7fabf0e3e000-7fabf0e3f000 ---p 00000000 00:00 0 
7fabf0e3f000-7fabf0f3f000 rw-p 00000000 00:00 0 
7fabf0f3f000-7fabf0f40000 ---p 00000000 00:00 0 
7fabf0f40000-7fabf1626000 rw-p 00000000 00:00 0 
7fabf1626000-7fabf339e000 ---p 00000000 00:00 0 
7fabf339e000-7fabf3ba6000 rw-p 00000000 00:00 0 
7fabf3ba6000-7fabf3e16000 rwxp 00000000 00:00 0 
7fabf3e16000-7fabf4137000 ---p 00000000 00:00 0 
7fabf4137000-7fabf43a7000 rwxp 00000000 00:00 0 
7fabf43a7000-7fabfb66e000 ---p 00000000 00:00 0 
7fabfb66e000-7fabfb8de000 rwxp 00000000 00:00 0 
7fabfb8de000-7fac02ba6000 ---p 00000000 00:00 0 
7fac02ba6000-7fac0c000000 r--s 00000000 08:01 65937010                   /home/psu/tools/java/jdk10/install/jvm/openjdk-10-internal/lib/modules
7fac0c000000-7fac0c34e000 rw-p 00000000 00:00 0 
7fac0c34e000-7fac10000000 ---p 00000000 00:00 0 
7fac10055000-7fac100db000 rw-p 00000000 00:00 0 
7fac100db000-7fac100dc000 ---p 00000000 00:00 0 
7fac100dc000-7fac101dc000 rw-p 00000000 00:00 0 
7fac101dc000-7fac101dd000 ---p 00000000 00:00 0 
7fac101dd000-7fac102dd000 rw-p 00000000 00:00 0 
7fac102dd000-7fac102de000 ---p 00000000 00:00 0 
7fac102de000-7fac103de000 rw-p 00000000 00:00 0 
7fac103de000-7fac103df000 ---p 00000000 00:00 0 
7fac103df000-7fac104df000 rw-p 00000000 00:00 0 
7fac104df000-7fac104e0000 ---p 00000000 00:00 0 
7fac104e0000-7fac105e0000 rw-p 00000000 00:00 0 
7fac105e0000-7fac105e1000 ---p 00000000 00:00 0 
7fac105e1000-7fac106e1000 rw-p 00000000 00:00 0 
7fac106e1000-7fac106e2000 ---p 00000000 00:00 0 
7fac106e2000-7fac107e2000 rw-p 00000000 00:00 0 
7fac107e2000-7fac107e3000 ---p 00000000 00:00 0 
7fac107e3000-7fac108e8000 rw-p 00000000 00:00 0 
7fac108e8000-7fac109ce000 ---p 00000000 00:00 0 
7fac109ce000-7fac109d3000 rw-p 00000000 00:00 0 
7fac109d3000-7fac10ab9000 ---p 00000000 00:00 0 
7fac10ab9000-7fac10ad3000 r-xp 00000000 08:01 65937244                   /home/psu/tools/java/jdk10/install/jvm/openjdk-10-internal/lib/libjimage.so
7fac10ad3000-7fac10cd3000 ---p 0001a000 08:01 65937244                   /home/psu/tools/java/jdk10/install/jvm/openjdk-10-internal/lib/libjimage.so
7fac10cd3000-7fac10cd5000 r--p 0001a000 08:01 65937244                   /home/psu/tools/java/jdk10/install/jvm/openjdk-10-internal/lib/libjimage.so
7fac10cd5000-7fac10cd6000 rw-p 0001c000 08:01 65937244                   /home/psu/tools/java/jdk10/install/jvm/openjdk-10-internal/lib/libjimage.so
7fac10cd6000-7fac10cdd000 r-xp 00000000 08:01 65937241                   /home/psu/tools/java/jdk10/install/jvm/openjdk-10-internal/lib/libzip.so
7fac10cdd000-7fac10edc000 ---p 00007000 08:01 65937241                   /home/psu/tools/java/jdk10/install/jvm/openjdk-10-internal/lib/libzip.so
7fac10edc000-7fac10edd000 r--p 00006000 08:01 65937241                   /home/psu/tools/java/jdk10/install/jvm/openjdk-10-internal/lib/libzip.so
7fac10edd000-7fac10ede000 rw-p 00007000 08:01 65937241                   /home/psu/tools/java/jdk10/install/jvm/openjdk-10-internal/lib/libzip.so
7fac10ede000-7fac10ee9000 r-xp 00000000 08:01 76808441                   /lib/x86_64-linux-gnu/libnss_files-2.23.so
7fac10ee9000-7fac110e8000 ---p 0000b000 08:01 76808441                   /lib/x86_64-linux-gnu/libnss_files-2.23.so
7fac110e8000-7fac110e9000 r--p 0000a000 08:01 76808441                   /lib/x86_64-linux-gnu/libnss_files-2.23.so
7fac110e9000-7fac110ea000 rw-p 0000b000 08:01 76808441                   /lib/x86_64-linux-gnu/libnss_files-2.23.so
7fac110ea000-7fac110f0000 rw-p 00000000 00:00 0 
7fac110f0000-7fac110fb000 r-xp 00000000 08:01 76808445                   /lib/x86_64-linux-gnu/libnss_nis-2.23.so
7fac110fb000-7fac112fa000 ---p 0000b000 08:01 76808445                   /lib/x86_64-linux-gnu/libnss_nis-2.23.so
7fac112fa000-7fac112fb000 r--p 0000a000 08:01 76808445                   /lib/x86_64-linux-gnu/libnss_nis-2.23.so
7fac112fb000-7fac112fc000 rw-p 0000b000 08:01 76808445                   /lib/x86_64-linux-gnu/libnss_nis-2.23.so
7fac112fc000-7fac11312000 r-xp 00000000 08:01 76808425                   /lib/x86_64-linux-gnu/libnsl-2.23.so
7fac11312000-7fac11511000 ---p 00016000 08:01 76808425                   /lib/x86_64-linux-gnu/libnsl-2.23.so
7fac11511000-7fac11512000 r--p 00015000 08:01 76808425                   /lib/x86_64-linux-gnu/libnsl-2.23.so
7fac11512000-7fac11513000 rw-p 00016000 08:01 76808425                   /lib/x86_64-linux-gnu/libnsl-2.23.so
7fac11513000-7fac11515000 rw-p 00000000 00:00 0 
7fac11515000-7fac1151d000 r-xp 00000000 08:01 76808436                   /lib/x86_64-linux-gnu/libnss_compat-2.23.so
7fac1151d000-7fac1171c000 ---p 00008000 08:01 76808436                   /lib/x86_64-linux-gnu/libnss_compat-2.23.so
7fac1171c000-7fac1171d000 r--p 00007000 08:01 76808436                   /lib/x86_64-linux-gnu/libnss_compat-2.23.so
7fac1171d000-7fac1171e000 rw-p 00008000 08:01 76808436                   /lib/x86_64-linux-gnu/libnss_compat-2.23.so
7fac1171e000-7fac118dd000 r-xp 00000000 08:01 33302928                   /home/psu/tools/java/libpfm-4.10.1/lib/libpfm.so.4.10.1
7fac118dd000-7fac11adc000 ---p 001bf000 08:01 33302928                   /home/psu/tools/java/libpfm-4.10.1/lib/libpfm.so.4.10.1
7fac11adc000-7fac11b6f000 r--p 001be000 08:01 33302928                   /home/psu/tools/java/libpfm-4.10.1/lib/libpfm.so.4.10.1
7fac11b6f000-7fac11bcf000 rw-p 00251000 08:01 33302928                   /home/psu/tools/java/libpfm-4.10.1/lib/libpfm.so.4.10.1
7fac11bcf000-7fac11bd1000 rw-p 00000000 00:00 0 
7fac11bd1000-7fac121b4000 r-xp 00000000 08:01 14842235                   /home/psu/tools/java/java-sampling-profiler/build/thirdparty/lib/libxed.so
7fac121b4000-7fac123b3000 ---p 005e3000 08:01 14842235                   /home/psu/tools/java/java-sampling-profiler/build/thirdparty/lib/libxed.so
7fac123b3000-7fac1243b000 r--p 005e2000 08:01 14842235                   /home/psu/tools/java/java-sampling-profiler/build/thirdparty/lib/libxed.so
7fac1243b000-7fac12457000 rw-p 0066a000 08:01 14842235                   /home/psu/tools/java/java-sampling-profiler/build/thirdparty/lib/libxed.so
7fac12457000-7fac1245b000 rw-p 00000000 00:00 0 
7fac1245b000-7fac1250b000 r-xp 00000000 08:01 14842354                   /home/psu/tools/java/java-sampling-profiler/build/libagent.so
7fac1250b000-7fac1270a000 ---p 000b0000 08:01 14842354                   /home/psu/tools/java/java-sampling-profiler/build/libagent.so
7fac1270a000-7fac1270b000 r--p 000af000 08:01 14842354                   /home/psu/tools/java/java-sampling-profiler/build/libagent.so
7fac1270b000-7fac12710000 rw-p 000b0000 08:01 14842354                   /home/psu/tools/java/java-sampling-profiler/build/libagent.so
7fac12710000-7fac12714000 rw-p 00000000 00:00 0 
7fac12714000-7fac12741000 r-xp 00000000 08:01 65937242                   /home/psu/tools/java/jdk10/install/jvm/openjdk-10-internal/lib/libjava.so
7fac12741000-7fac12940000 ---p 0002d000 08:01 65937242                   /home/psu/tools/java/jdk10/install/jvm/openjdk-10-internal/lib/libjava.so
7fac12940000-7fac12941000 r--p 0002c000 08:01 65937242                   /home/psu/tools/java/jdk10/install/jvm/openjdk-10-internal/lib/libjava.so
7fac12941000-7fac12943000 rw-p 0002d000 08:01 65937242                   /home/psu/tools/java/jdk10/install/jvm/openjdk-10-internal/lib/libjava.so
7fac12943000-7fac12950000 r-xp 00000000 08:01 65937245                   /home/psu/tools/java/jdk10/install/jvm/openjdk-10-internal/lib/libverify.so
7fac12950000-7fac12b4f000 ---p 0000d000 08:01 65937245                   /home/psu/tools/java/jdk10/install/jvm/openjdk-10-internal/lib/libverify.so
7fac12b4f000-7fac12b51000 r--p 0000c000 08:01 65937245                   /home/psu/tools/java/jdk10/install/jvm/openjdk-10-internal/lib/libverify.so
7fac12b51000-7fac12b52000 rw-p 0000e000 08:01 65937245                   /home/psu/tools/java/jdk10/install/jvm/openjdk-10-internal/lib/libverify.so
7fac12b52000-7fac12b59000 r-xp 00000000 08:01 76808446                   /lib/x86_64-linux-gnu/librt-2.23.so
7fac12b59000-7fac12d58000 ---p 00007000 08:01 76808446                   /lib/x86_64-linux-gnu/librt-2.23.so
7fac12d58000-7fac12d59000 r--p 00006000 08:01 76808446                   /lib/x86_64-linux-gnu/librt-2.23.so
7fac12d59000-7fac12d5a000 rw-p 00007000 08:01 76808446                   /lib/x86_64-linux-gnu/librt-2.23.so
7fac12d5a000-7fac13ce0000 r-xp 00000000 08:01 66065891                   /home/psu/tools/java/jdk10/install/jvm/openjdk-10-internal/lib/server/libjvm.so
7fac13ce0000-7fac13edf000 ---p 00f86000 08:01 66065891                   /home/psu/tools/java/jdk10/install/jvm/openjdk-10-internal/lib/server/libjvm.so
7fac13edf000-7fac13fa3000 r--p 00f85000 08:01 66065891                   /home/psu/tools/java/jdk10/install/jvm/openjdk-10-internal/lib/server/libjvm.so
7fac13fa3000-7fac13fdb000 rw-p 01049000 08:01 66065891                   /home/psu/tools/java/jdk10/install/jvm/openjdk-10-internal/lib/server/libjvm.so
7fac13fdb000-7fac14024000 rw-p 00000000 00:00 0 
7fac14024000-7fac1412c000 r-xp 00000000 08:01 76808424                   /lib/x86_64-linux-gnu/libm-2.23.so
7fac1412c000-7fac1432b000 ---p 00108000 08:01 76808424                   /lib/x86_64-linux-gnu/libm-2.23.so
7fac1432b000-7fac1432c000 r--p 00107000 08:01 76808424                   /lib/x86_64-linux-gnu/libm-2.23.so
7fac1432c000-7fac1432d000 rw-p 00108000 08:01 76808424                   /lib/x86_64-linux-gnu/libm-2.23.so
7fac1432d000-7fac14345000 r-xp 00000000 08:01 76808427                   /lib/x86_64-linux-gnu/libpthread-2.23.so
7fac14345000-7fac14544000 ---p 00018000 08:01 76808427                   /lib/x86_64-linux-gnu/libpthread-2.23.so
7fac14544000-7fac14545000 r--p 00017000 08:01 76808427                   /lib/x86_64-linux-gnu/libpthread-2.23.so
7fac14545000-7fac14546000 rw-p 00018000 08:01 76808427                   /lib/x86_64-linux-gnu/libpthread-2.23.so
7fac14546000-7fac1454a000 rw-p 00000000 00:00 0 
7fac1454a000-7fac14563000 r-xp 00000000 08:01 76808197                   /lib/x86_64-linux-gnu/libz.so.1.2.8
7fac14563000-7fac14762000 ---p 00019000 08:01 76808197                   /lib/x86_64-linux-gnu/libz.so.1.2.8
7fac14762000-7fac14763000 r--p 00018000 08:01 76808197                   /lib/x86_64-linux-gnu/libz.so.1.2.8
7fac14763000-7fac14764000 rw-p 00019000 08:01 76808197                   /lib/x86_64-linux-gnu/libz.so.1.2.8
7fac14764000-7fac1477a000 r-xp 00000000 08:01 76814999                   /lib/x86_64-linux-gnu/libgcc_s.so.1
7fac1477a000-7fac14979000 ---p 00016000 08:01 76814999                   /lib/x86_64-linux-gnu/libgcc_s.so.1
7fac14979000-7fac1497a000 rw-p 00015000 08:01 76814999                   /lib/x86_64-linux-gnu/libgcc_s.so.1
7fac1497a000-7fac14aec000 r-xp 00000000 08:01 40632349                   /usr/lib/x86_64-linux-gnu/libstdc++.so.6.0.21
7fac14aec000-7fac14cec000 ---p 00172000 08:01 40632349                   /usr/lib/x86_64-linux-gnu/libstdc++.so.6.0.21
7fac14cec000-7fac14cf6000 r--p 00172000 08:01 40632349                   /usr/lib/x86_64-linux-gnu/libstdc++.so.6.0.21
7fac14cf6000-7fac14cf8000 rw-p 0017c000 08:01 40632349                   /usr/lib/x86_64-linux-gnu/libstdc++.so.6.0.21
7fac14cf8000-7fac14cfc000 rw-p 00000000 00:00 0 
7fac14cfc000-7fac14cff000 r-xp 00000000 08:01 76808430                   /lib/x86_64-linux-gnu/libdl-2.23.so
7fac14cff000-7fac14efe000 ---p 00003000 08:01 76808430                   /lib/x86_64-linux-gnu/libdl-2.23.so
7fac14efe000-7fac14eff000 r--p 00002000 08:01 76808430                   /lib/x86_64-linux-gnu/libdl-2.23.so
7fac14eff000-7fac14f00000 rw-p 00003000 08:01 76808430                   /lib/x86_64-linux-gnu/libdl-2.23.so
7fac14f00000-7fac150c0000 r-xp 00000000 08:01 76808428                   /lib/x86_64-linux-gnu/libc-2.23.so
7fac150c0000-7fac152c0000 ---p 001c0000 08:01 76808428                   /lib/x86_64-linux-gnu/libc-2.23.so
7fac152c0000-7fac152c4000 r--p 001c0000 08:01 76808428                   /lib/x86_64-linux-gnu/libc-2.23.so
7fac152c4000-7fac152c6000 rw-p 001c4000 08:01 76808428                   /lib/x86_64-linux-gnu/libc-2.23.so
7fac152c6000-7fac152ca000 rw-p 00000000 00:00 0 
7fac152ca000-7fac152d8000 r-xp 00000000 08:01 66195262                   /home/psu/tools/java/jdk10/install/jvm/openjdk-10-internal/lib/jli/libjli.so
7fac152d8000-7fac154d7000 ---p 0000e000 08:01 66195262                   /home/psu/tools/java/jdk10/install/jvm/openjdk-10-internal/lib/jli/libjli.so
7fac154d7000-7fac154d8000 r--p 0000d000 08:01 66195262                   /home/psu/tools/java/jdk10/install/jvm/openjdk-10-internal/lib/jli/libjli.so
7fac154d8000-7fac154d9000 rw-p 0000e000 08:01 66195262                   /home/psu/tools/java/jdk10/install/jvm/openjdk-10-internal/lib/jli/libjli.so
7fac154d9000-7fac154db000 r-xp 00000000 08:01 14842313                   /home/psu/tools/java/java-sampling-profiler/build/libpreload.so
7fac154db000-7fac156da000 ---p 00002000 08:01 14842313                   /home/psu/tools/java/java-sampling-profiler/build/libpreload.so
7fac156da000-7fac156db000 r--p 00001000 08:01 14842313                   /home/psu/tools/java/java-sampling-profiler/build/libpreload.so
7fac156db000-7fac156dc000 rw-p 00002000 08:01 14842313                   /home/psu/tools/java/java-sampling-profiler/build/libpreload.so
7fac156dc000-7fac15702000 r-xp 00000000 08:01 76808426                   /lib/x86_64-linux-gnu/ld-2.23.so
7fac15702000-7fac157db000 rw-p 00000000 00:00 0 
7fac157db000-7fac157df000 ---p 00000000 00:00 0 
7fac157df000-7fac158e4000 rw-p 00000000 00:00 0 
7fac158e9000-7fac158ef000 rw-p 00000000 00:00 0 
7fac158ef000-7fac158f6000 ---p 00000000 00:00 0 
7fac158f6000-7fac158fe000 rw-s 00000000 08:01 35000700                   /tmp/hsperfdata_psu/19930
7fac158fe000-7fac158ff000 rw-p 00000000 00:00 0 
7fac158ff000-7fac15900000 r--p 00000000 00:00 0 
7fac15900000-7fac15901000 rw-p 00000000 00:00 0 
7fac15901000-7fac15902000 r--p 00025000 08:01 76808426                   /lib/x86_64-linux-gnu/ld-2.23.so
7fac15902000-7fac15903000 rw-p 00026000 08:01 76808426                   /lib/x86_64-linux-gnu/ld-2.23.so
7fac15903000-7fac15904000 rw-p 00000000 00:00 0 
7ffdd5f35000-7ffdd5f56000 rw-p 00000000 00:00 0                          [stack]
7ffdd5fa6000-7ffdd5fa9000 r--p 00000000 00:00 0                          [vvar]
7ffdd5fa9000-7ffdd5fab000 r-xp 00000000 00:00 0                          [vdso]
ffffffffff600000-ffffffffff601000 r-xp 00000000 00:00 0                  [vsyscall]

