40000000-40009000 r-xp 00000000 08:01 14952723                           /home/psu/tools/java/jdk1.6.0_45/bin/java
40108000-4010a000 rwxp 00008000 08:01 14952723                           /home/psu/tools/java/jdk1.6.0_45/bin/java
41a2e000-41a4f000 rwxp 00000000 00:00 0                                  [heap]
40ce00000-40e2c0000 rwxp 00000000 00:00 0 
40e2c0000-412000000 rwxp 00000000 00:00 0 
412000000-43beb0000 rwxp 00000000 00:00 0 
43beb0000-6b0ab0000 rwxp 00000000 00:00 0 
6b0ab0000-6c5a00000 rwxp 00000000 00:00 0 
6c5a00000-800000000 rwxp 00000000 00:00 0 
7ffa80000000-7ffa80021000 rwxp 00000000 00:00 0 
7ffa80021000-7ffa84000000 ---p 00000000 00:00 0 
7ffa84000000-7ffa84021000 rwxp 00000000 00:00 0 
7ffa84021000-7ffa88000000 ---p 00000000 00:00 0 
7ffa88000000-7ffa88021000 rwxp 00000000 00:00 0 
7ffa88021000-7ffa8c000000 ---p 00000000 00:00 0 
7ffa8c000000-7ffa8c021000 rwxp 00000000 00:00 0 
7ffa8c021000-7ffa90000000 ---p 00000000 00:00 0 
7ffa90000000-7ffa90021000 rwxp 00000000 00:00 0 
7ffa90021000-7ffa94000000 ---p 00000000 00:00 0 
7ffa94000000-7ffa94021000 rwxp 00000000 00:00 0 
7ffa94021000-7ffa98000000 ---p 00000000 00:00 0 
7ffa98000000-7ffa98021000 rwxp 00000000 00:00 0 
7ffa98021000-7ffa9c000000 ---p 00000000 00:00 0 
7ffa9c000000-7ffa9c021000 rwxp 00000000 00:00 0 
7ffa9c021000-7ffaa0000000 ---p 00000000 00:00 0 
7ffaa0000000-7ffaa0021000 rwxp 00000000 00:00 0 
7ffaa0021000-7ffaa4000000 ---p 00000000 00:00 0 
7ffaa4000000-7ffaa4021000 rwxp 00000000 00:00 0 
7ffaa4021000-7ffaa8000000 ---p 00000000 00:00 0 
7ffaa8000000-7ffaa8021000 rwxp 00000000 00:00 0 
7ffaa8021000-7ffaac000000 ---p 00000000 00:00 0 
7ffaad9e3000-7ffaadcbb000 r-xp 00000000 08:01 40633977                   /usr/lib/locale/locale-archive
7ffaadcbb000-7ffaadebd000 rwxp 00000000 00:00 0 
7ffaadebd000-7ffaadec0000 ---p 00000000 00:00 0 
7ffaadec0000-7ffaadfbe000 rwxp 00000000 00:00 0 
7ffaadfbe000-7ffaadfc1000 ---p 00000000 00:00 0 
7ffaadfc1000-7ffaae0bf000 rwxp 00000000 00:00 0 
7ffaae0bf000-7ffaae0c0000 ---p 00000000 00:00 0 
7ffaae0c0000-7ffaaeac9000 rwxp 00000000 00:00 0 
7ffaaeac9000-7ffaaec62000 r-xs 03087000 08:01 15083098                   /home/psu/tools/java/jdk1.6.0_45/jre/lib/rt.jar
7ffaaec62000-7ffaaec63000 ---p 00000000 00:00 0 
7ffaaec63000-7ffaaed63000 rwxp 00000000 00:00 0 
7ffaaed63000-7ffaaed64000 ---p 00000000 00:00 0 
7ffaaed64000-7ffaaee64000 rwxp 00000000 00:00 0 
7ffaaee64000-7ffaaee65000 ---p 00000000 00:00 0 
7ffaaee65000-7ffaaef65000 rwxp 00000000 00:00 0 
7ffaaef65000-7ffaaef66000 ---p 00000000 00:00 0 
7ffaaef66000-7ffaaf071000 rwxp 00000000 00:00 0 
7ffaaf071000-7ffaaf08f000 rwxp 00000000 00:00 0 
7ffaaf08f000-7ffaaf1df000 rwxp 00000000 00:00 0 
7ffaaf1df000-7ffab0584000 rwxp 00000000 00:00 0 
7ffab0584000-7ffab062c000 rwxp 00000000 00:00 0 
7ffab062c000-7ffab0fff000 rwxp 00000000 00:00 0 
7ffab0fff000-7ffab1270000 rwxp 00000000 00:00 0 
7ffab1270000-7ffab40a9000 rwxp 00000000 00:00 0 
7ffab40a9000-7ffab8000000 ---p 00000000 00:00 0 
7ffab8098000-7ffab80cc000 rwxp 00000000 00:00 0 
7ffab80cc000-7ffab80cd000 ---p 00000000 00:00 0 
7ffab80cd000-7ffab81cd000 rwxp 00000000 00:00 0 
7ffab81cd000-7ffab81ce000 ---p 00000000 00:00 0 
7ffab81ce000-7ffab82ce000 rwxp 00000000 00:00 0 
7ffab82ce000-7ffab82cf000 ---p 00000000 00:00 0 
7ffab82cf000-7ffab83cf000 rwxp 00000000 00:00 0 
7ffab83cf000-7ffab83d0000 ---p 00000000 00:00 0 
7ffab83d0000-7ffab84db000 rwxp 00000000 00:00 0 
7ffab84db000-7ffab84f9000 rwxp 00000000 00:00 0 
7ffab84f9000-7ffab8649000 rwxp 00000000 00:00 0 
7ffab8649000-7ffab99ef000 rwxp 00000000 00:00 0 
7ffab99ef000-7ffab99fd000 r-xp 00000000 08:01 15083604                   /home/psu/tools/java/jdk1.6.0_45/jre/lib/amd64/libzip.so
7ffab99fd000-7ffab9aff000 ---p 0000e000 08:01 15083604                   /home/psu/tools/java/jdk1.6.0_45/jre/lib/amd64/libzip.so
7ffab9aff000-7ffab9b02000 rwxp 00010000 08:01 15083604                   /home/psu/tools/java/jdk1.6.0_45/jre/lib/amd64/libzip.so
7ffab9b02000-7ffab9b03000 rwxp 00000000 00:00 0 
7ffab9b03000-7ffab9b0e000 r-xp 00000000 08:01 76808441                   /lib/x86_64-linux-gnu/libnss_files-2.23.so
7ffab9b0e000-7ffab9d0d000 ---p 0000b000 08:01 76808441                   /lib/x86_64-linux-gnu/libnss_files-2.23.so
7ffab9d0d000-7ffab9d0e000 r-xp 0000a000 08:01 76808441                   /lib/x86_64-linux-gnu/libnss_files-2.23.so
7ffab9d0e000-7ffab9d0f000 rwxp 0000b000 08:01 76808441                   /lib/x86_64-linux-gnu/libnss_files-2.23.so
7ffab9d0f000-7ffab9d15000 rwxp 00000000 00:00 0 
7ffab9d15000-7ffab9d20000 r-xp 00000000 08:01 76808445                   /lib/x86_64-linux-gnu/libnss_nis-2.23.so
7ffab9d20000-7ffab9f1f000 ---p 0000b000 08:01 76808445                   /lib/x86_64-linux-gnu/libnss_nis-2.23.so
7ffab9f1f000-7ffab9f20000 r-xp 0000a000 08:01 76808445                   /lib/x86_64-linux-gnu/libnss_nis-2.23.so
7ffab9f20000-7ffab9f21000 rwxp 0000b000 08:01 76808445                   /lib/x86_64-linux-gnu/libnss_nis-2.23.so
7ffab9f21000-7ffab9f29000 r-xp 00000000 08:01 76808436                   /lib/x86_64-linux-gnu/libnss_compat-2.23.so
7ffab9f29000-7ffaba128000 ---p 00008000 08:01 76808436                   /lib/x86_64-linux-gnu/libnss_compat-2.23.so
7ffaba128000-7ffaba129000 r-xp 00007000 08:01 76808436                   /lib/x86_64-linux-gnu/libnss_compat-2.23.so
7ffaba129000-7ffaba12a000 rwxp 00008000 08:01 76808436                   /lib/x86_64-linux-gnu/libnss_compat-2.23.so
7ffaba12a000-7ffaba2e9000 r-xp 00000000 08:01 33302928                   /home/psu/tools/java/libpfm-4.10.1/lib/libpfm.so.4.10.1
7ffaba2e9000-7ffaba4e8000 ---p 001bf000 08:01 33302928                   /home/psu/tools/java/libpfm-4.10.1/lib/libpfm.so.4.10.1
7ffaba4e8000-7ffaba57b000 r-xp 001be000 08:01 33302928                   /home/psu/tools/java/libpfm-4.10.1/lib/libpfm.so.4.10.1
7ffaba57b000-7ffaba5db000 rwxp 00251000 08:01 33302928                   /home/psu/tools/java/libpfm-4.10.1/lib/libpfm.so.4.10.1
7ffaba5db000-7ffaba5dd000 rwxp 00000000 00:00 0 
7ffaba5dd000-7ffababc0000 r-xp 00000000 08:01 14842237                   /home/psu/tools/java/java-sampling-profiler/build/thirdparty/lib/libxed.so
7ffababc0000-7ffabadbf000 ---p 005e3000 08:01 14842237                   /home/psu/tools/java/java-sampling-profiler/build/thirdparty/lib/libxed.so
7ffabadbf000-7ffabae47000 r-xp 005e2000 08:01 14842237                   /home/psu/tools/java/java-sampling-profiler/build/thirdparty/lib/libxed.so
7ffabae47000-7ffabae63000 rwxp 0066a000 08:01 14842237                   /home/psu/tools/java/java-sampling-profiler/build/thirdparty/lib/libxed.so
7ffabae63000-7ffabae67000 rwxp 00000000 00:00 0 
7ffabae67000-7ffabaf17000 r-xp 00000000 08:01 14842226                   /home/psu/tools/java/java-sampling-profiler/build/libagent.so
7ffabaf17000-7ffabb116000 ---p 000b0000 08:01 14842226                   /home/psu/tools/java/java-sampling-profiler/build/libagent.so
7ffabb116000-7ffabb117000 r-xp 000af000 08:01 14842226                   /home/psu/tools/java/java-sampling-profiler/build/libagent.so
7ffabb117000-7ffabb11c000 rwxp 000b0000 08:01 14842226                   /home/psu/tools/java/java-sampling-profiler/build/libagent.so
7ffabb11c000-7ffabb120000 rwxp 00000000 00:00 0 
7ffabb120000-7ffabb136000 r-xp 00000000 08:01 76808425                   /lib/x86_64-linux-gnu/libnsl-2.23.so
7ffabb136000-7ffabb335000 ---p 00016000 08:01 76808425                   /lib/x86_64-linux-gnu/libnsl-2.23.so
7ffabb335000-7ffabb336000 r-xp 00015000 08:01 76808425                   /lib/x86_64-linux-gnu/libnsl-2.23.so
7ffabb336000-7ffabb337000 rwxp 00016000 08:01 76808425                   /lib/x86_64-linux-gnu/libnsl-2.23.so
7ffabb337000-7ffabb339000 rwxp 00000000 00:00 0 
7ffabb339000-7ffabb362000 r-xp 00000000 08:01 15083650                   /home/psu/tools/java/jdk1.6.0_45/jre/lib/amd64/libjava.so
7ffabb362000-7ffabb461000 ---p 00029000 08:01 15083650                   /home/psu/tools/java/jdk1.6.0_45/jre/lib/amd64/libjava.so
7ffabb461000-7ffabb468000 rwxp 00028000 08:01 15083650                   /home/psu/tools/java/jdk1.6.0_45/jre/lib/amd64/libjava.so
7ffabb468000-7ffabb475000 r-xp 00000000 08:01 15083610                   /home/psu/tools/java/jdk1.6.0_45/jre/lib/amd64/libverify.so
7ffabb475000-7ffabb574000 ---p 0000d000 08:01 15083610                   /home/psu/tools/java/jdk1.6.0_45/jre/lib/amd64/libverify.so
7ffabb574000-7ffabb577000 rwxp 0000c000 08:01 15083610                   /home/psu/tools/java/jdk1.6.0_45/jre/lib/amd64/libverify.so
7ffabb577000-7ffabb57e000 r-xp 00000000 08:01 76808446                   /lib/x86_64-linux-gnu/librt-2.23.so
7ffabb57e000-7ffabb77d000 ---p 00007000 08:01 76808446                   /lib/x86_64-linux-gnu/librt-2.23.so
7ffabb77d000-7ffabb77e000 r-xp 00006000 08:01 76808446                   /lib/x86_64-linux-gnu/librt-2.23.so
7ffabb77e000-7ffabb77f000 rwxp 00007000 08:01 76808446                   /lib/x86_64-linux-gnu/librt-2.23.so
7ffabb77f000-7ffabb782000 ---p 00000000 00:00 0 
7ffabb782000-7ffabb880000 rwxp 00000000 00:00 0 
7ffabb880000-7ffabc19e000 r-xp 00000000 08:01 15083621                   /home/psu/tools/java/jdk1.6.0_45/jre/lib/amd64/server/libjvm.so
7ffabc19e000-7ffabc2a0000 ---p 0091e000 08:01 15083621                   /home/psu/tools/java/jdk1.6.0_45/jre/lib/amd64/server/libjvm.so
7ffabc2a0000-7ffabc456000 rwxp 00920000 08:01 15083621                   /home/psu/tools/java/jdk1.6.0_45/jre/lib/amd64/server/libjvm.so
7ffabc456000-7ffabc490000 rwxp 00000000 00:00 0 
7ffabc490000-7ffabc598000 r-xp 00000000 08:01 76808424                   /lib/x86_64-linux-gnu/libm-2.23.so
7ffabc598000-7ffabc797000 ---p 00108000 08:01 76808424                   /lib/x86_64-linux-gnu/libm-2.23.so
7ffabc797000-7ffabc798000 r-xp 00107000 08:01 76808424                   /lib/x86_64-linux-gnu/libm-2.23.so
7ffabc798000-7ffabc799000 rwxp 00108000 08:01 76808424                   /lib/x86_64-linux-gnu/libm-2.23.so
7ffabc799000-7ffabc7af000 r-xp 00000000 08:01 76814999                   /lib/x86_64-linux-gnu/libgcc_s.so.1
7ffabc7af000-7ffabc9ae000 ---p 00016000 08:01 76814999                   /lib/x86_64-linux-gnu/libgcc_s.so.1
7ffabc9ae000-7ffabc9af000 rwxp 00015000 08:01 76814999                   /lib/x86_64-linux-gnu/libgcc_s.so.1
7ffabc9af000-7ffabcb21000 r-xp 00000000 08:01 40632349                   /usr/lib/x86_64-linux-gnu/libstdc++.so.6.0.21
7ffabcb21000-7ffabcd21000 ---p 00172000 08:01 40632349                   /usr/lib/x86_64-linux-gnu/libstdc++.so.6.0.21
7ffabcd21000-7ffabcd2b000 r-xp 00172000 08:01 40632349                   /usr/lib/x86_64-linux-gnu/libstdc++.so.6.0.21
7ffabcd2b000-7ffabcd2d000 rwxp 0017c000 08:01 40632349                   /usr/lib/x86_64-linux-gnu/libstdc++.so.6.0.21
7ffabcd2d000-7ffabcd31000 rwxp 00000000 00:00 0 
7ffabcd31000-7ffabcef1000 r-xp 00000000 08:01 76808428                   /lib/x86_64-linux-gnu/libc-2.23.so
7ffabcef1000-7ffabd0f1000 ---p 001c0000 08:01 76808428                   /lib/x86_64-linux-gnu/libc-2.23.so
7ffabd0f1000-7ffabd0f5000 r-xp 001c0000 08:01 76808428                   /lib/x86_64-linux-gnu/libc-2.23.so
7ffabd0f5000-7ffabd0f7000 rwxp 001c4000 08:01 76808428                   /lib/x86_64-linux-gnu/libc-2.23.so
7ffabd0f7000-7ffabd0fb000 rwxp 00000000 00:00 0 
7ffabd0fb000-7ffabd0fe000 r-xp 00000000 08:01 76808430                   /lib/x86_64-linux-gnu/libdl-2.23.so
7ffabd0fe000-7ffabd2fd000 ---p 00003000 08:01 76808430                   /lib/x86_64-linux-gnu/libdl-2.23.so
7ffabd2fd000-7ffabd2fe000 r-xp 00002000 08:01 76808430                   /lib/x86_64-linux-gnu/libdl-2.23.so
7ffabd2fe000-7ffabd2ff000 rwxp 00003000 08:01 76808430                   /lib/x86_64-linux-gnu/libdl-2.23.so
7ffabd2ff000-7ffabd317000 r-xp 00000000 08:01 76808427                   /lib/x86_64-linux-gnu/libpthread-2.23.so
7ffabd317000-7ffabd516000 ---p 00018000 08:01 76808427                   /lib/x86_64-linux-gnu/libpthread-2.23.so
7ffabd516000-7ffabd517000 r-xp 00017000 08:01 76808427                   /lib/x86_64-linux-gnu/libpthread-2.23.so
7ffabd517000-7ffabd518000 rwxp 00018000 08:01 76808427                   /lib/x86_64-linux-gnu/libpthread-2.23.so
7ffabd518000-7ffabd51c000 rwxp 00000000 00:00 0 
7ffabd51c000-7ffabd51e000 r-xp 00000000 08:01 14842241                   /home/psu/tools/java/java-sampling-profiler/build/libpreload.so
7ffabd51e000-7ffabd71d000 ---p 00002000 08:01 14842241                   /home/psu/tools/java/java-sampling-profiler/build/libpreload.so
7ffabd71d000-7ffabd71e000 r-xp 00001000 08:01 14842241                   /home/psu/tools/java/java-sampling-profiler/build/libpreload.so
7ffabd71e000-7ffabd71f000 rwxp 00002000 08:01 14842241                   /home/psu/tools/java/java-sampling-profiler/build/libpreload.so
7ffabd71f000-7ffabd745000 r-xp 00000000 08:01 76808426                   /lib/x86_64-linux-gnu/ld-2.23.so
7ffabd756000-7ffabd760000 rwxp 00000000 00:00 0 
7ffabd760000-7ffabd816000 rwxp 00000000 00:00 0 
7ffabd816000-7ffabd81c000 rwxp 00000000 00:00 0 
7ffabd81c000-7ffabd823000 r-xp 00000000 08:01 15083626                   /home/psu/tools/java/jdk1.6.0_45/jre/lib/amd64/jli/libjli.so
7ffabd823000-7ffabd924000 ---p 00007000 08:01 15083626                   /home/psu/tools/java/jdk1.6.0_45/jre/lib/amd64/jli/libjli.so
7ffabd924000-7ffabd926000 rwxp 00008000 08:01 15083626                   /home/psu/tools/java/jdk1.6.0_45/jre/lib/amd64/jli/libjli.so
7ffabd926000-7ffabd927000 rwxp 00000000 00:00 0 
7ffabd939000-7ffabd941000 rwxs 00000000 08:01 35000707                   /tmp/hsperfdata_psu/15928
7ffabd941000-7ffabd942000 rwxp 00000000 00:00 0 
7ffabd942000-7ffabd943000 r-xp 00000000 00:00 0 
7ffabd943000-7ffabd944000 rwxp 00000000 00:00 0 
7ffabd944000-7ffabd945000 r-xp 00025000 08:01 76808426                   /lib/x86_64-linux-gnu/ld-2.23.so
7ffabd945000-7ffabd946000 rwxp 00026000 08:01 76808426                   /lib/x86_64-linux-gnu/ld-2.23.so
7ffabd946000-7ffabd947000 rwxp 00000000 00:00 0 
7ffe1bf01000-7ffe1bf22000 rwxp 00000000 00:00 0                          [stack]
7ffe1bf29000-7ffe1bf2c000 r--p 00000000 00:00 0                          [vvar]
7ffe1bf2c000-7ffe1bf2e000 r-xp 00000000 00:00 0                          [vdso]
ffffffffff600000-ffffffffff601000 r-xp 00000000 00:00 0                  [vsyscall]

