/home/bli35/jxperf/benchmark/case_studies/commons-collections4-4.2-src_original/src/test/java/org/apache/commons/collections4/functors/AllPredicateTest.java
/home/bli35/jxperf/benchmark/case_studies/commons-collections4-4.2-src_original/src/test/java/org/apache/commons/collections4/map/PassiveExpiringMapTest.java
/home/bli35/jxperf/benchmark/case_studies/commons-collections4-4.2-src_original/src/test/java/org/apache/commons/collections4/iterators/SingletonIterator2Test.java
/home/bli35/jxperf/benchmark/case_studies/commons-collections4-4.2-src_original/src/test/java/org/apache/commons/collections4/set/MapBackedSet2Test.java
/home/bli35/jxperf/benchmark/case_studies/commons-collections4-4.2-src_original/src/test/java/org/apache/commons/collections4/multiset/SynchronizedMultiSetTest.java
/home/bli35/jxperf/benchmark/case_studies/commons-collections4-4.2-src_original/src/test/java/org/apache/commons/collections4/functors/NullPredicateTest.java
/home/bli35/jxperf/benchmark/case_studies/commons-collections4-4.2-src_original/src/test/java/org/apache/commons/collections4/AbstractObjectTest.java
/home/bli35/jxperf/benchmark/case_studies/commons-collections4-4.2-src_original/src/test/java/org/apache/commons/collections4/comparators/AbstractNullComparatorTest.java
/home/bli35/jxperf/benchmark/case_studies/commons-collections4-4.2-src_original/src/test/java/org/apache/commons/collections4/set/TransformedSetTest.java
/home/bli35/jxperf/benchmark/case_studies/commons-collections4-4.2-src_original/src/test/java/org/apache/commons/collections4/functors/EqualPredicateTest.java
/home/bli35/jxperf/benchmark/case_studies/commons-collections4-4.2-src_original/src/test/java/org/apache/commons/collections4/bag/CollectionSortedBagTest.java
/home/bli35/jxperf/benchmark/case_studies/commons-collections4-4.2-src_original/src/test/java/org/apache/commons/collections4/list/NodeCachingLinkedListTest.java
/home/bli35/jxperf/benchmark/case_studies/commons-collections4-4.2-src_original/src/test/java/org/apache/commons/collections4/set/MapBackedSetTest.java
/home/bli35/jxperf/benchmark/case_studies/commons-collections4-4.2-src_original/src/test/java/org/apache/commons/collections4/set/PredicatedNavigableSetTest.java
/home/bli35/jxperf/benchmark/case_studies/commons-collections4-4.2-src_original/src/test/java/org/apache/commons/collections4/list/GrowthListTest.java
/home/bli35/jxperf/benchmark/case_studies/commons-collections4-4.2-src_original/src/test/java/org/apache/commons/collections4/iterators/IteratorEnumerationTest.java
/home/bli35/jxperf/benchmark/case_studies/commons-collections4-4.2-src_original/src/test/java/org/apache/commons/collections4/keyvalue/TiedMapEntryTest.java
/home/bli35/jxperf/benchmark/case_studies/commons-collections4-4.2-src_original/src/test/java/org/apache/commons/collections4/functors/ComparatorPredicateTest.java
/home/bli35/jxperf/benchmark/case_studies/commons-collections4-4.2-src_original/src/test/java/org/apache/commons/collections4/bag/AbstractSortedBagTest.java
/home/bli35/jxperf/benchmark/case_studies/commons-collections4-4.2-src_original/src/test/java/org/apache/commons/collections4/map/LazySortedMapTest.java
/home/bli35/jxperf/benchmark/case_studies/commons-collections4-4.2-src_original/src/test/java/org/apache/commons/collections4/iterators/AbstractListIteratorTest.java
/home/bli35/jxperf/benchmark/case_studies/commons-collections4-4.2-src_original/src/test/java/org/apache/commons/collections4/comparators/ReverseComparatorTest.java
/home/bli35/jxperf/benchmark/case_studies/commons-collections4-4.2-src_original/src/test/java/org/apache/commons/collections4/bag/UnmodifiableBagTest.java
/home/bli35/jxperf/benchmark/case_studies/commons-collections4-4.2-src_original/src/test/java/org/apache/commons/collections4/iterators/PushbackIteratorTest.java
/home/bli35/jxperf/benchmark/case_studies/commons-collections4-4.2-src_original/src/test/java/org/apache/commons/collections4/trie/PatriciaTrieTest.java
/home/bli35/jxperf/benchmark/case_studies/commons-collections4-4.2-src_original/src/test/java/org/apache/commons/collections4/map/Flat3MapTest.java
/home/bli35/jxperf/benchmark/case_studies/commons-collections4-4.2-src_original/src/test/java/org/apache/commons/collections4/functors/AbstractPredicateTest.java
/home/bli35/jxperf/benchmark/case_studies/commons-collections4-4.2-src_original/src/test/java/org/apache/commons/collections4/bidimap/UnmodifiableSortedBidiMapTest.java
/home/bli35/jxperf/benchmark/case_studies/commons-collections4-4.2-src_original/src/test/java/org/apache/commons/collections4/set/AbstractSetTest.java
/home/bli35/jxperf/benchmark/case_studies/commons-collections4-4.2-src_original/src/test/java/org/apache/commons/collections4/map/LinkedMapTest.java
/home/bli35/jxperf/benchmark/case_studies/commons-collections4-4.2-src_original/src/test/java/org/apache/commons/collections4/iterators/ObjectArrayIteratorTest.java
/home/bli35/jxperf/benchmark/case_studies/commons-collections4-4.2-src_original/src/test/java/org/apache/commons/collections4/list/FixedSizeListTest.java
/home/bli35/jxperf/benchmark/case_studies/commons-collections4-4.2-src_original/src/test/java/org/apache/commons/collections4/queue/CircularFifoQueueTest.java
/home/bli35/jxperf/benchmark/case_studies/commons-collections4-4.2-src_original/src/test/java/org/apache/commons/collections4/map/TransformedMapTest.java
/home/bli35/jxperf/benchmark/case_studies/commons-collections4-4.2-src_original/src/test/java/org/apache/commons/collections4/ArrayStackTest.java
/home/bli35/jxperf/benchmark/case_studies/commons-collections4-4.2-src_original/src/test/java/org/apache/commons/collections4/comparators/AbstractComparatorTest.java
/home/bli35/jxperf/benchmark/case_studies/commons-collections4-4.2-src_original/src/test/java/org/apache/commons/collections4/iterators/UnmodifiableListIteratorTest.java
/home/bli35/jxperf/benchmark/case_studies/commons-collections4-4.2-src_original/src/test/java/org/apache/commons/collections4/bidimap/AbstractSortedBidiMapTest.java
/home/bli35/jxperf/benchmark/case_studies/commons-collections4-4.2-src_original/src/test/java/org/apache/commons/collections4/bag/TransformedBagTest.java
/home/bli35/jxperf/benchmark/case_studies/commons-collections4-4.2-src_original/src/test/java/org/apache/commons/collections4/FactoryUtilsTest.java
/home/bli35/jxperf/benchmark/case_studies/commons-collections4-4.2-src_original/src/test/java/org/apache/commons/collections4/comparators/TransformingComparatorTest.java
/home/bli35/jxperf/benchmark/case_studies/commons-collections4-4.2-src_original/src/test/java/org/apache/commons/collections4/TrieUtilsTest.java
/home/bli35/jxperf/benchmark/case_studies/commons-collections4-4.2-src_original/src/test/java/org/apache/commons/collections4/iterators/UnmodifiableOrderedMapIteratorTest.java
/home/bli35/jxperf/benchmark/case_studies/commons-collections4-4.2-src_original/src/test/java/org/apache/commons/collections4/set/AbstractSortedSetTest.java
/home/bli35/jxperf/benchmark/case_studies/commons-collections4-4.2-src_original/src/test/java/org/apache/commons/collections4/map/ReferenceIdentityMapTest.java
/home/bli35/jxperf/benchmark/case_studies/commons-collections4-4.2-src_original/src/test/java/org/apache/commons/collections4/CollectionUtilsTest.java
/home/bli35/jxperf/benchmark/case_studies/commons-collections4-4.2-src_original/src/test/java/org/apache/commons/collections4/map/IdentityMap.java
/home/bli35/jxperf/benchmark/case_studies/commons-collections4-4.2-src_original/src/test/java/org/apache/commons/collections4/properties/SortedPropertiesTest.java
/home/bli35/jxperf/benchmark/case_studies/commons-collections4-4.2-src_original/src/test/java/org/apache/commons/collections4/multiset/AbstractMultiSetTest.java
/home/bli35/jxperf/benchmark/case_studies/commons-collections4-4.2-src_original/src/test/java/org/apache/commons/collections4/set/PredicatedSetTest.java
/home/bli35/jxperf/benchmark/case_studies/commons-collections4-4.2-src_original/src/test/java/org/apache/commons/collections4/multimap/ArrayListValuedHashMapTest.java
/home/bli35/jxperf/benchmark/case_studies/commons-collections4-4.2-src_original/src/test/java/org/apache/commons/collections4/keyvalue/MultiKeyTest.java
/home/bli35/jxperf/benchmark/case_studies/commons-collections4-4.2-src_original/src/test/java/org/apache/commons/collections4/AbstractArrayListTest.java
/home/bli35/jxperf/benchmark/case_studies/commons-collections4-4.2-src_original/src/test/java/org/apache/commons/collections4/collection/PredicatedCollectionTest.java
/home/bli35/jxperf/benchmark/case_studies/commons-collections4-4.2-src_original/src/test/java/org/apache/commons/collections4/set/EmptySetMutator.java
/home/bli35/jxperf/benchmark/case_studies/commons-collections4-4.2-src_original/src/test/java/org/apache/commons/collections4/list/TreeListTest.java
/home/bli35/jxperf/benchmark/case_studies/commons-collections4-4.2-src_original/src/test/java/org/apache/commons/collections4/iterators/NodeListIteratorTest.java
/home/bli35/jxperf/benchmark/case_studies/commons-collections4-4.2-src_original/src/test/java/org/apache/commons/collections4/map/ReferenceMapTest.java
/home/bli35/jxperf/benchmark/case_studies/commons-collections4-4.2-src_original/src/test/java/org/apache/commons/collections4/list/PredicatedListTest.java
/home/bli35/jxperf/benchmark/case_studies/commons-collections4-4.2-src_original/src/test/java/org/apache/commons/collections4/map/LRUMapTest.java
/home/bli35/jxperf/benchmark/case_studies/commons-collections4-4.2-src_original/src/test/java/org/apache/commons/collections4/AbstractLinkedListTest.java
/home/bli35/jxperf/benchmark/case_studies/commons-collections4-4.2-src_original/src/test/java/org/apache/commons/collections4/map/AbstractSortedMapTest.java
/home/bli35/jxperf/benchmark/case_studies/commons-collections4-4.2-src_original/src/test/java/org/apache/commons/collections4/multiset/PredicatedMultiSetTest.java
/home/bli35/jxperf/benchmark/case_studies/commons-collections4-4.2-src_original/src/test/java/org/apache/commons/collections4/iterators/ArrayIteratorTest.java
/home/bli35/jxperf/benchmark/case_studies/commons-collections4-4.2-src_original/src/test/java/org/apache/commons/collections4/iterators/UniqueFilterIteratorTest.java
/home/bli35/jxperf/benchmark/case_studies/commons-collections4-4.2-src_original/src/test/java/org/apache/commons/collections4/keyvalue/AbstractMapEntryTest.java
/home/bli35/jxperf/benchmark/case_studies/commons-collections4-4.2-src_original/src/test/java/org/apache/commons/collections4/set/ListOrderedSet2Test.java
/home/bli35/jxperf/benchmark/case_studies/commons-collections4-4.2-src_original/src/test/java/org/apache/commons/collections4/iterators/PeekingIteratorTest.java
/home/bli35/jxperf/benchmark/case_studies/commons-collections4-4.2-src_original/src/test/java/org/apache/commons/collections4/queue/SynchronizedQueueTest.java
/home/bli35/jxperf/benchmark/case_studies/commons-collections4-4.2-src_original/src/test/java/org/apache/commons/collections4/collection/UnmodifiableCollectionTest.java
/home/bli35/jxperf/benchmark/case_studies/commons-collections4-4.2-src_original/src/test/java/org/apache/commons/collections4/EnumerationUtilsTest.java
/home/bli35/jxperf/benchmark/case_studies/commons-collections4-4.2-src_original/src/test/java/org/apache/commons/collections4/list/SetUniqueListTest.java
/home/bli35/jxperf/benchmark/case_studies/commons-collections4-4.2-src_original/src/test/java/org/apache/commons/collections4/junit/AbstractAvailableLocalesTest.java
/home/bli35/jxperf/benchmark/case_studies/commons-collections4-4.2-src_original/src/test/java/org/apache/commons/collections4/iterators/ObjectArrayListIteratorTest.java
/home/bli35/jxperf/benchmark/case_studies/commons-collections4-4.2-src_original/src/test/java/org/apache/commons/collections4/list/AbstractListTest.java
/home/bli35/jxperf/benchmark/case_studies/commons-collections4-4.2-src_original/src/test/java/org/apache/commons/collections4/multimap/TransformedMultiValuedMapTest.java
/home/bli35/jxperf/benchmark/case_studies/commons-collections4-4.2-src_original/src/test/java/org/apache/commons/collections4/iterators/ArrayIterator2Test.java
/home/bli35/jxperf/benchmark/case_studies/commons-collections4-4.2-src_original/src/test/java/org/apache/commons/collections4/iterators/SingletonIteratorTest.java
/home/bli35/jxperf/benchmark/case_studies/commons-collections4-4.2-src_original/src/test/java/org/apache/commons/collections4/queue/AbstractQueueTest.java
/home/bli35/jxperf/benchmark/case_studies/commons-collections4-4.2-src_original/src/test/java/org/apache/commons/collections4/MapPerformance.java
/home/bli35/jxperf/benchmark/case_studies/commons-collections4-4.2-src_original/src/test/java/org/apache/commons/collections4/iterators/BoundedIteratorTest.java
/home/bli35/jxperf/benchmark/case_studies/commons-collections4-4.2-src_original/src/test/java/org/apache/commons/collections4/multimap/HashSetValuedHashMapTest.java
/home/bli35/jxperf/benchmark/case_studies/commons-collections4-4.2-src_original/src/test/java/org/apache/commons/collections4/multiset/UnmodifiableMultiSetTest.java
/home/bli35/jxperf/benchmark/case_studies/commons-collections4-4.2-src_original/src/test/java/org/apache/commons/collections4/map/HashedMapTest.java
/home/bli35/jxperf/benchmark/case_studies/commons-collections4-4.2-src_original/src/test/java/org/apache/commons/collections4/set/UnmodifiableSetTest.java
/home/bli35/jxperf/benchmark/case_studies/commons-collections4-4.2-src_original/src/test/java/org/apache/commons/collections4/SplitMapUtilsTest.java
/home/bli35/jxperf/benchmark/case_studies/commons-collections4-4.2-src_original/src/test/java/org/apache/commons/collections4/iterators/ListIteratorWrapper2Test.java
/home/bli35/jxperf/benchmark/case_studies/commons-collections4-4.2-src_original/src/test/java/org/apache/commons/collections4/trie/UnmodifiableTrieTest.java
/home/bli35/jxperf/benchmark/case_studies/commons-collections4-4.2-src_original/src/test/java/org/apache/commons/collections4/iterators/IteratorChainTest.java
/home/bli35/jxperf/benchmark/case_studies/commons-collections4-4.2-src_original/src/test/java/org/apache/commons/collections4/QueueUtilsTest.java
/home/bli35/jxperf/benchmark/case_studies/commons-collections4-4.2-src_original/src/test/java/org/apache/commons/collections4/TransformerUtilsTest.java
/home/bli35/jxperf/benchmark/case_studies/commons-collections4-4.2-src_original/src/test/java/org/apache/commons/collections4/bag/PredicatedSortedBagTest.java
/home/bli35/jxperf/benchmark/case_studies/commons-collections4-4.2-src_original/src/test/java/org/apache/commons/collections4/IterableUtilsTest.java
/home/bli35/jxperf/benchmark/case_studies/commons-collections4-4.2-src_original/src/test/java/org/apache/commons/collections4/map/ListOrderedMap2Test.java
/home/bli35/jxperf/benchmark/case_studies/commons-collections4-4.2-src_original/src/test/java/org/apache/commons/collections4/bidimap/AbstractOrderedBidiMapDecoratorTest.java
/home/bli35/jxperf/benchmark/case_studies/commons-collections4-4.2-src_original/src/test/java/org/apache/commons/collections4/iterators/LazyIteratorChainTest.java
/home/bli35/jxperf/benchmark/case_studies/commons-collections4-4.2-src_original/src/test/java/org/apache/commons/collections4/multiset/HashMultiSetTest.java
/home/bli35/jxperf/benchmark/case_studies/commons-collections4-4.2-src_original/src/test/java/org/apache/commons/collections4/bidimap/AbstractBidiMapTest.java
/home/bli35/jxperf/benchmark/case_studies/commons-collections4-4.2-src_original/src/test/java/org/apache/commons/collections4/iterators/LoopingListIteratorTest.java
/home/bli35/jxperf/benchmark/case_studies/commons-collections4-4.2-src_original/src/test/java/org/apache/commons/collections4/queue/UnmodifiableQueueTest.java
/home/bli35/jxperf/benchmark/case_studies/commons-collections4-4.2-src_original/src/test/java/org/apache/commons/collections4/collection/CompositeCollectionTest.java
/home/bli35/jxperf/benchmark/case_studies/commons-collections4-4.2-src_original/src/test/java/org/apache/commons/collections4/ListUtilsTest.java
/home/bli35/jxperf/benchmark/case_studies/commons-collections4-4.2-src_original/src/test/java/org/apache/commons/collections4/functors/AbstractAnyAllOnePredicateTest.java
/home/bli35/jxperf/benchmark/case_studies/commons-collections4-4.2-src_original/src/test/java/org/apache/commons/collections4/map/UnmodifiableOrderedMapTest.java
/home/bli35/jxperf/benchmark/case_studies/commons-collections4-4.2-src_original/src/test/java/org/apache/commons/collections4/iterators/ReverseListIteratorTest.java
/home/bli35/jxperf/benchmark/case_studies/commons-collections4-4.2-src_original/src/test/java/org/apache/commons/collections4/iterators/PermutationIteratorTest.java
/home/bli35/jxperf/benchmark/case_studies/commons-collections4-4.2-src_original/src/test/java/org/apache/commons/collections4/IteratorUtilsTest.java
/home/bli35/jxperf/benchmark/case_studies/commons-collections4-4.2-src_original/src/test/java/org/apache/commons/collections4/comparators/ComparatorChainTest.java
/home/bli35/jxperf/benchmark/case_studies/commons-collections4-4.2-src_original/src/test/java/org/apache/commons/collections4/bidimap/DualLinkedHashBidiMapTest.java
/home/bli35/jxperf/benchmark/case_studies/commons-collections4-4.2-src_original/src/test/java/org/apache/commons/collections4/bag/CollectionBagTest.java
/home/bli35/jxperf/benchmark/case_studies/commons-collections4-4.2-src_original/src/test/java/org/apache/commons/collections4/iterators/ArrayListIteratorTest.java
/home/bli35/jxperf/benchmark/case_studies/commons-collections4-4.2-src_original/src/test/java/org/apache/commons/collections4/comparators/BooleanComparatorTest.java
/home/bli35/jxperf/benchmark/case_studies/commons-collections4-4.2-src_original/src/test/java/org/apache/commons/collections4/functors/CatchAndRethrowClosureTest.java
/home/bli35/jxperf/benchmark/case_studies/commons-collections4-4.2-src_original/src/test/java/org/apache/commons/collections4/map/StaticBucketMapTest.java
/home/bli35/jxperf/benchmark/case_studies/commons-collections4-4.2-src_original/src/test/java/org/apache/commons/collections4/set/TransformedNavigableSetTest.java
/home/bli35/jxperf/benchmark/case_studies/commons-collections4-4.2-src_original/src/test/java/org/apache/commons/collections4/map/CompositeMapTest.java
/home/bli35/jxperf/benchmark/case_studies/commons-collections4-4.2-src_original/src/test/java/org/apache/commons/collections4/collection/IndexedCollectionTest.java
/home/bli35/jxperf/benchmark/case_studies/commons-collections4-4.2-src_original/src/test/java/org/apache/commons/collections4/comparators/FixedOrderComparatorTest.java
/home/bli35/jxperf/benchmark/case_studies/commons-collections4-4.2-src_original/src/test/java/org/apache/commons/collections4/queue/PredicatedQueueTest.java
/home/bli35/jxperf/benchmark/case_studies/commons-collections4-4.2-src_original/src/test/java/org/apache/commons/collections4/collection/PredicatedCollectionBuilderTest.java
/home/bli35/jxperf/benchmark/case_studies/commons-collections4-4.2-src_original/src/test/java/org/apache/commons/collections4/multimap/UnmodifiableMultiValuedMapTest.java
/home/bli35/jxperf/benchmark/case_studies/commons-collections4-4.2-src_original/src/test/java/org/apache/commons/collections4/MockTestCase.java
/home/bli35/jxperf/benchmark/case_studies/commons-collections4-4.2-src_original/src/test/java/org/apache/commons/collections4/list/TransformedListTest.java
/home/bli35/jxperf/benchmark/case_studies/commons-collections4-4.2-src_original/src/test/java/org/apache/commons/collections4/iterators/SingletonListIteratorTest.java
/home/bli35/jxperf/benchmark/case_studies/commons-collections4-4.2-src_original/src/test/java/org/apache/commons/collections4/iterators/ZippingIteratorTest.java
/home/bli35/jxperf/benchmark/case_studies/commons-collections4-4.2-src_original/src/test/java/org/apache/commons/collections4/iterators/AbstractIteratorTest.java
/home/bli35/jxperf/benchmark/case_studies/commons-collections4-4.2-src_original/src/test/java/org/apache/commons/collections4/PredicateUtilsTest.java
/home/bli35/jxperf/benchmark/case_studies/commons-collections4-4.2-src_original/src/test/java/org/apache/commons/collections4/BagUtilsTest.java
/home/bli35/jxperf/benchmark/case_studies/commons-collections4-4.2-src_original/src/test/java/org/apache/commons/collections4/set/ListOrderedSetTest.java
/home/bli35/jxperf/benchmark/case_studies/commons-collections4-4.2-src_original/src/test/java/org/apache/commons/collections4/SetUtilsTest.java
/home/bli35/jxperf/benchmark/case_studies/commons-collections4-4.2-src_original/src/test/java/org/apache/commons/collections4/bidimap/DualTreeBidiMapTest.java
/home/bli35/jxperf/benchmark/case_studies/commons-collections4-4.2-src_original/src/test/java/org/apache/commons/collections4/iterators/CollatingIteratorTest.java
/home/bli35/jxperf/benchmark/case_studies/commons-collections4-4.2-src_original/src/test/java/org/apache/commons/collections4/keyvalue/DefaultMapEntryTest.java
/home/bli35/jxperf/benchmark/case_studies/commons-collections4-4.2-src_original/src/test/java/org/apache/commons/collections4/iterators/UnmodifiableIteratorTest.java
/home/bli35/jxperf/benchmark/case_studies/commons-collections4-4.2-src_original/src/test/java/org/apache/commons/collections4/keyvalue/DefaultKeyValueTest.java
/home/bli35/jxperf/benchmark/case_studies/commons-collections4-4.2-src_original/src/test/java/org/apache/commons/collections4/collection/TransformedCollectionTest.java
/home/bli35/jxperf/benchmark/case_studies/commons-collections4-4.2-src_original/src/test/java/org/apache/commons/collections4/multimap/AbstractMultiValuedMapTest.java
/home/bli35/jxperf/benchmark/case_studies/commons-collections4-4.2-src_original/src/test/java/org/apache/commons/collections4/map/FixedSizeMapTest.java
/home/bli35/jxperf/benchmark/case_studies/commons-collections4-4.2-src_original/src/test/java/org/apache/commons/collections4/functors/AbstractMockPredicateTest.java
/home/bli35/jxperf/benchmark/case_studies/commons-collections4-4.2-src_original/src/test/java/org/apache/commons/collections4/map/PredicatedMapTest.java
/home/bli35/jxperf/benchmark/case_studies/commons-collections4-4.2-src_original/src/test/java/org/apache/commons/collections4/iterators/FilterListIteratorTest.java
/home/bli35/jxperf/benchmark/case_studies/commons-collections4-4.2-src_original/src/test/java/org/apache/commons/collections4/keyvalue/UnmodifiableMapEntryTest.java
/home/bli35/jxperf/benchmark/case_studies/commons-collections4-4.2-src_original/src/test/java/org/apache/commons/collections4/iterators/IteratorIterableTest.java
/home/bli35/jxperf/benchmark/case_studies/commons-collections4-4.2-src_original/src/test/java/org/apache/commons/collections4/map/EmptyMapMutator.java
/home/bli35/jxperf/benchmark/case_studies/commons-collections4-4.2-src_original/src/test/java/org/apache/commons/collections4/comparators/ComparableComparatorTest.java
/home/bli35/jxperf/benchmark/case_studies/commons-collections4-4.2-src_original/src/test/java/org/apache/commons/collections4/AbstractTreeMapTest.java
/home/bli35/jxperf/benchmark/case_studies/commons-collections4-4.2-src_original/src/test/java/org/apache/commons/collections4/iterators/UnmodifiableMapIteratorTest.java
/home/bli35/jxperf/benchmark/case_studies/commons-collections4-4.2-src_original/src/test/java/org/apache/commons/collections4/set/UnmodifiableSortedSetTest.java
/home/bli35/jxperf/benchmark/case_studies/commons-collections4-4.2-src_original/src/test/java/org/apache/commons/collections4/MultiMapUtilsTest.java
/home/bli35/jxperf/benchmark/case_studies/commons-collections4-4.2-src_original/src/test/java/org/apache/commons/collections4/sequence/SequencesComparatorTest.java
/home/bli35/jxperf/benchmark/case_studies/commons-collections4-4.2-src_original/src/test/java/org/apache/commons/collections4/map/LazyMapTest.java
/home/bli35/jxperf/benchmark/case_studies/commons-collections4-4.2-src_original/src/test/java/org/apache/commons/collections4/map/AbstractIterableMapTest.java
/home/bli35/jxperf/benchmark/case_studies/commons-collections4-4.2-src_original/src/test/java/org/apache/commons/collections4/MapUtilsTest.java
/home/bli35/jxperf/benchmark/case_studies/commons-collections4-4.2-src_original/src/test/java/org/apache/commons/collections4/map/PredicatedSortedMapTest.java
/home/bli35/jxperf/benchmark/case_studies/commons-collections4-4.2-src_original/src/test/java/org/apache/commons/collections4/iterators/FilterIteratorTest.java
/home/bli35/jxperf/benchmark/case_studies/commons-collections4-4.2-src_original/src/test/java/org/apache/commons/collections4/set/UnmodifiableNavigableSetTest.java
/home/bli35/jxperf/benchmark/case_studies/commons-collections4-4.2-src_original/src/test/java/org/apache/commons/collections4/map/TransformedSortedMapTest.java
/home/bli35/jxperf/benchmark/case_studies/commons-collections4-4.2-src_original/src/test/java/org/apache/commons/collections4/list/CursorableLinkedListTest.java
/home/bli35/jxperf/benchmark/case_studies/commons-collections4-4.2-src_original/src/test/java/org/apache/commons/collections4/iterators/ArrayListIterator2Test.java
/home/bli35/jxperf/benchmark/case_studies/commons-collections4-4.2-src_original/src/test/java/org/apache/commons/collections4/MultiSetUtilsTest.java
/home/bli35/jxperf/benchmark/case_studies/commons-collections4-4.2-src_original/src/test/java/org/apache/commons/collections4/trie/PatriciaTrie2Test.java
/home/bli35/jxperf/benchmark/case_studies/commons-collections4-4.2-src_original/src/test/java/org/apache/commons/collections4/iterators/SkippingIteratorTest.java
/home/bli35/jxperf/benchmark/case_studies/commons-collections4-4.2-src_original/src/test/java/org/apache/commons/collections4/bag/HashBagTest.java
/home/bli35/jxperf/benchmark/case_studies/commons-collections4-4.2-src_original/src/test/java/org/apache/commons/collections4/set/AbstractNavigableSetTest.java
/home/bli35/jxperf/benchmark/case_studies/commons-collections4-4.2-src_original/src/test/java/org/apache/commons/collections4/bag/TransformedSortedBagTest.java
/home/bli35/jxperf/benchmark/case_studies/commons-collections4-4.2-src_original/src/test/java/org/apache/commons/collections4/bag/PredicatedBagTest.java
/home/bli35/jxperf/benchmark/case_studies/commons-collections4-4.2-src_original/src/test/java/org/apache/commons/collections4/map/SingletonMapTest.java
/home/bli35/jxperf/benchmark/case_studies/commons-collections4-4.2-src_original/src/test/java/org/apache/commons/collections4/bidimap/UnmodifiableBidiMapTest.java
/home/bli35/jxperf/benchmark/case_studies/commons-collections4-4.2-src_original/src/test/java/org/apache/commons/collections4/iterators/ListIteratorWrapperTest.java
/home/bli35/jxperf/benchmark/case_studies/commons-collections4-4.2-src_original/src/test/java/org/apache/commons/collections4/set/PredicatedSortedSetTest.java
/home/bli35/jxperf/benchmark/case_studies/commons-collections4-4.2-src_original/src/test/java/org/apache/commons/collections4/BulkTest.java
/home/bli35/jxperf/benchmark/case_studies/commons-collections4-4.2-src_original/src/test/java/org/apache/commons/collections4/FluentIterableTest.java
/home/bli35/jxperf/benchmark/case_studies/commons-collections4-4.2-src_original/src/test/java/org/apache/commons/collections4/bidimap/UnmodifiableOrderedBidiMapTest.java
/home/bli35/jxperf/benchmark/case_studies/commons-collections4-4.2-src_original/src/test/java/org/apache/commons/collections4/collection/UnmodifiableBoundedCollectionTest.java
/home/bli35/jxperf/benchmark/case_studies/commons-collections4-4.2-src_original/src/test/java/org/apache/commons/collections4/iterators/AbstractOrderedMapIteratorTest.java
/home/bli35/jxperf/benchmark/case_studies/commons-collections4-4.2-src_original/src/test/java/org/apache/commons/collections4/map/AbstractOrderedMapTest.java
/home/bli35/jxperf/benchmark/case_studies/commons-collections4-4.2-src_original/src/test/java/org/apache/commons/collections4/ClosureUtilsTest.java
/home/bli35/jxperf/benchmark/case_studies/commons-collections4-4.2-src_original/src/test/java/org/apache/commons/collections4/set/CompositeSetTest.java
/home/bli35/jxperf/benchmark/case_studies/commons-collections4-4.2-src_original/src/test/java/org/apache/commons/collections4/functors/AbstractClosureTest.java
/home/bli35/jxperf/benchmark/case_studies/commons-collections4-4.2-src_original/src/test/java/org/apache/commons/collections4/map/AbstractMapTest.java
/home/bli35/jxperf/benchmark/case_studies/commons-collections4-4.2-src_original/src/test/java/org/apache/commons/collections4/bidimap/TreeBidiMapTest.java
/home/bli35/jxperf/benchmark/case_studies/commons-collections4-4.2-src_original/src/test/java/org/apache/commons/collections4/map/DefaultedMapTest.java
/home/bli35/jxperf/benchmark/case_studies/commons-collections4-4.2-src_original/src/test/java/org/apache/commons/collections4/bag/UnmodifiableSortedBagTest.java
/home/bli35/jxperf/benchmark/case_studies/commons-collections4-4.2-src_original/src/test/java/org/apache/commons/collections4/map/UnmodifiableSortedMapTest.java
/home/bli35/jxperf/benchmark/case_studies/commons-collections4-4.2-src_original/src/test/java/org/apache/commons/collections4/iterators/AbstractMapIteratorTest.java
/home/bli35/jxperf/benchmark/case_studies/commons-collections4-4.2-src_original/src/test/java/org/apache/commons/collections4/iterators/ObjectGraphIteratorTest.java
/home/bli35/jxperf/benchmark/case_studies/commons-collections4-4.2-src_original/src/test/java/org/apache/commons/collections4/bag/TreeBagTest.java
/home/bli35/jxperf/benchmark/case_studies/commons-collections4-4.2-src_original/src/test/java/org/apache/commons/collections4/bidimap/DualHashBidiMapTest.java
/home/bli35/jxperf/benchmark/case_studies/commons-collections4-4.2-src_original/src/test/java/org/apache/commons/collections4/map/CaseInsensitiveMapTest.java
/home/bli35/jxperf/benchmark/case_studies/commons-collections4-4.2-src_original/src/test/java/org/apache/commons/collections4/collection/SynchronizedCollectionTest.java
/home/bli35/jxperf/benchmark/case_studies/commons-collections4-4.2-src_original/src/test/java/org/apache/commons/collections4/bidimap/AbstractOrderedBidiMapTest.java
/home/bli35/jxperf/benchmark/case_studies/commons-collections4-4.2-src_original/src/test/java/org/apache/commons/collections4/bag/AbstractBagTest.java
/home/bli35/jxperf/benchmark/case_studies/commons-collections4-4.2-src_original/src/test/java/org/apache/commons/collections4/map/MultiValueMapTest.java
/home/bli35/jxperf/benchmark/case_studies/commons-collections4-4.2-src_original/src/test/java/org/apache/commons/collections4/functors/AbstractCompositePredicateTest.java
/home/bli35/jxperf/benchmark/case_studies/commons-collections4-4.2-src_original/src/test/java/org/apache/commons/collections4/iterators/LoopingIteratorTest.java
/home/bli35/jxperf/benchmark/case_studies/commons-collections4-4.2-src_original/src/test/java/org/apache/commons/collections4/set/TransformedSortedSetTest.java
/home/bli35/jxperf/benchmark/case_studies/commons-collections4-4.2-src_original/src/test/java/org/apache/commons/collections4/bidimap/DualTreeBidiMap2Test.java
/home/bli35/jxperf/benchmark/case_studies/commons-collections4-4.2-src_original/src/test/java/org/apache/commons/collections4/map/FixedSizeSortedMapTest.java
/home/bli35/jxperf/benchmark/case_studies/commons-collections4-4.2-src_original/src/test/java/org/apache/commons/collections4/ComparatorUtilsTest.java
/home/bli35/jxperf/benchmark/case_studies/commons-collections4-4.2-src_original/src/test/java/org/apache/commons/collections4/splitmap/TransformedSplitMapTest.java
/home/bli35/jxperf/benchmark/case_studies/commons-collections4-4.2-src_original/src/test/java/org/apache/commons/collections4/map/MultiKeyMapTest.java
/home/bli35/jxperf/benchmark/case_studies/commons-collections4-4.2-src_original/src/test/java/org/apache/commons/collections4/iterators/ObjectArrayListIterator2Test.java
/home/bli35/jxperf/benchmark/case_studies/commons-collections4-4.2-src_original/src/test/java/org/apache/commons/collections4/junit/SetDefaultLocaleTestRule.java
/home/bli35/jxperf/benchmark/case_studies/commons-collections4-4.2-src_original/src/test/java/org/apache/commons/collections4/list/UnmodifiableListTest.java
/home/bli35/jxperf/benchmark/case_studies/commons-collections4-4.2-src_original/src/test/java/org/apache/commons/collections4/queue/TransformedQueueTest.java
/home/bli35/jxperf/benchmark/case_studies/commons-collections4-4.2-src_original/src/test/java/org/apache/commons/collections4/TestUtils.java
/home/bli35/jxperf/benchmark/case_studies/commons-collections4-4.2-src_original/src/test/java/org/apache/commons/collections4/list/AbstractLinkedListTest.java
/home/bli35/jxperf/benchmark/case_studies/commons-collections4-4.2-src_original/src/test/java/org/apache/commons/collections4/map/UnmodifiableMapTest.java
/home/bli35/jxperf/benchmark/case_studies/commons-collections4-4.2-src_original/src/test/java/org/apache/commons/collections4/map/ListOrderedMapTest.java
/home/bli35/jxperf/benchmark/case_studies/commons-collections4-4.2-src_original/src/test/java/org/apache/commons/collections4/bag/SynchronizedBagTest.java
/home/bli35/jxperf/benchmark/case_studies/commons-collections4-4.2-src_original/src/test/java/org/apache/commons/collections4/collection/AbstractCollectionTest.java
/home/bli35/jxperf/benchmark/case_studies/commons-collections4-4.2-src_original/src/test/java/org/apache/commons/collections4/junit/ObjectToStringComparator.java
