-------------------------------------------------------------------------------
Test set: org.apache.commons.collections4.map.LinkedMapTest
-------------------------------------------------------------------------------
Tests run: 332, Failures: 0, Errors: 0, Skipped: 0, Time elapsed: 0.073 s - in org.apache.commons.collections4.map.LinkedMapTest
