-------------------------------------------------------------------------------
Test set: org.apache.commons.collections4.keyvalue.MultiKeyTest
-------------------------------------------------------------------------------
Tests run: 12, Failures: 0, Errors: 0, Skipped: 0, Time elapsed: 0.001 s - in org.apache.commons.collections4.keyvalue.MultiKeyTest
