-------------------------------------------------------------------------------
Test set: org.apache.commons.collections4.multiset.SynchronizedMultiSetTest
-------------------------------------------------------------------------------
Tests run: 74, Failures: 0, Errors: 0, Skipped: 0, Time elapsed: 0.027 s - in org.apache.commons.collections4.multiset.SynchronizedMultiSetTest
