-------------------------------------------------------------------------------
Test set: org.apache.commons.collections4.multiset.HashMultiSetTest
-------------------------------------------------------------------------------
Tests run: 74, Failures: 0, Errors: 0, Skipped: 0, Time elapsed: 0.005 s - in org.apache.commons.collections4.multiset.HashMultiSetTest
