-------------------------------------------------------------------------------
Test set: org.apache.commons.collections4.IterableUtilsTest
-------------------------------------------------------------------------------
Tests run: 18, Failures: 0, Errors: 0, Skipped: 0, Time elapsed: 0.001 s - in org.apache.commons.collections4.IterableUtilsTest
