-------------------------------------------------------------------------------
Test set: org.apache.commons.collections4.MultiSetUtilsTest
-------------------------------------------------------------------------------
Tests run: 4, Failures: 0, Errors: 0, Skipped: 0, Time elapsed: 0 s - in org.apache.commons.collections4.MultiSetUtilsTest
