-------------------------------------------------------------------------------
Test set: org.apache.commons.collections4.list.FixedSizeListTest
-------------------------------------------------------------------------------
Tests run: 57, Failures: 0, Errors: 0, Skipped: 0, Time elapsed: 0.013 s - in org.apache.commons.collections4.list.FixedSizeListTest
