-------------------------------------------------------------------------------
Test set: org.apache.commons.collections4.multimap.UnmodifiableMultiValuedMapTest
-------------------------------------------------------------------------------
Tests run: 337, Failures: 0, Errors: 0, Skipped: 0, Time elapsed: 0.032 s - in org.apache.commons.collections4.multimap.UnmodifiableMultiValuedMapTest
