-------------------------------------------------------------------------------
Test set: org.apache.commons.collections4.set.MapBackedSetTest
-------------------------------------------------------------------------------
Tests run: 28, Failures: 0, Errors: 0, Skipped: 0, Time elapsed: 0.001 s - in org.apache.commons.collections4.set.MapBackedSetTest
