-------------------------------------------------------------------------------
Test set: org.apache.commons.collections4.SplitMapUtilsTest
-------------------------------------------------------------------------------
Tests run: 4, Failures: 0, Errors: 0, Skipped: 0, Time elapsed: 0.004 s - in org.apache.commons.collections4.SplitMapUtilsTest
