-------------------------------------------------------------------------------
Test set: org.apache.commons.collections4.multimap.TransformedMultiValuedMapTest
-------------------------------------------------------------------------------
Tests run: 331, Failures: 0, Errors: 0, Skipped: 0, Time elapsed: 0.099 s - in org.apache.commons.collections4.multimap.TransformedMultiValuedMapTest
