-------------------------------------------------------------------------------
Test set: org.apache.commons.collections4.multiset.PredicatedMultiSetTest
-------------------------------------------------------------------------------
Tests run: 77, Failures: 0, Errors: 0, Skipped: 0, Time elapsed: 0.008 s - in org.apache.commons.collections4.multiset.PredicatedMultiSetTest
