-------------------------------------------------------------------------------
Test set: org.apache.commons.collections4.map.ReferenceMapTest
-------------------------------------------------------------------------------
Tests run: 155, Failures: 0, Errors: 0, Skipped: 0, Time elapsed: 0.229 s - in org.apache.commons.collections4.map.ReferenceMapTest
