-------------------------------------------------------------------------------
Test set: org.apache.commons.collections4.bidimap.TreeBidiMapTest
-------------------------------------------------------------------------------
Tests run: 383, Failures: 0, Errors: 0, Skipped: 0, Time elapsed: 0.143 s - in org.apache.commons.collections4.bidimap.TreeBidiMapTest
