-------------------------------------------------------------------------------
Test set: org.apache.commons.collections4.set.PredicatedNavigableSetTest
-------------------------------------------------------------------------------
Tests run: 200, Failures: 0, Errors: 0, Skipped: 0, Time elapsed: 0.076 s - in org.apache.commons.collections4.set.PredicatedNavigableSetTest
