-------------------------------------------------------------------------------
Test set: org.apache.commons.collections4.map.ListOrderedMapTest
-------------------------------------------------------------------------------
Tests run: 487, Failures: 0, Errors: 0, Skipped: 0, Time elapsed: 0.093 s - in org.apache.commons.collections4.map.ListOrderedMapTest
