-------------------------------------------------------------------------------
Test set: org.apache.commons.collections4.list.TreeListTest
-------------------------------------------------------------------------------
Tests run: 158, Failures: 0, Errors: 0, Skipped: 0, Time elapsed: 0.209 s - in org.apache.commons.collections4.list.TreeListTest
