<?xml version="1.0" encoding="ISO-8859-1" ?>
<specjvm-result>
  <workload>SPECjvm2008 Peak</workload>
  <suite-build-version>SPECjvm2008 1.01 (20090519)</suite-build-version>
  <run-info>
    <spec.jvm2008.report.run.location>n/a</spec.jvm2008.report.run.location>
    <spec.jvm2008.report.run.submitter.url>n/a</spec.jvm2008.report.run.submitter.url>
    <spec.jvm2008.report.run.license>n/a</spec.jvm2008.report.run.license>
    <spec.jvm2008.report.run.tester>bli11</spec.jvm2008.report.run.tester>
    <spec.jvm2008.report.run.date>Wed Mar 04 17:35:29 EST 2020</spec.jvm2008.report.run.date>
    <spec.jvm2008.report.run.submitter>n/a</spec.jvm2008.report.run.submitter>
  </run-info>
  <jvm-info>
    <spec.jvm2008.report.jvm.vendor>&quot;Oracle Corporation&quot;</spec.jvm2008.report.jvm.vendor>
    <spec.jvm2008.report.jvm.startup.launcher>default</spec.jvm2008.report.jvm.startup.launcher>
    <spec.jvm2008.report.jvm.other.tuning> </spec.jvm2008.report.jvm.other.tuning>
    <spec.jvm2008.report.jvm.vendor.url>http://java.oracle.com/</spec.jvm2008.report.jvm.vendor.url>
    <spec.jvm2008.report.jvm.command.line.max.heap.size>n/a</spec.jvm2008.report.jvm.command.line.max.heap.size>
    <spec.jvm2008.report.jvm.version>10.0.2+13 mixed mode</spec.jvm2008.report.jvm.version>
    <spec.jvm2008.report.jvm.command.line>n/a</spec.jvm2008.report.jvm.command.line>
    <spec.jvm2008.report.jvm.command.line.initial.heap.size>n/a</spec.jvm2008.report.jvm.command.line.initial.heap.size>
    <spec.jvm2008.report.jvm.boot.class.path>n/a</spec.jvm2008.report.jvm.boot.class.path>
    <spec.jvm2008.report.jvm.name>Java HotSpot(TM) 64-Bit Server VM</spec.jvm2008.report.jvm.name>
    <spec.jvm2008.report.jvm.app.class.path>SPECjvm2008.jar</spec.jvm2008.report.jvm.app.class.path>
    <spec.jvm2008.report.jvm.available.date>n/a</spec.jvm2008.report.jvm.available.date>
    <spec.jvm2008.report.jvm.java.specification>10</spec.jvm2008.report.jvm.java.specification>
    <spec.jvm2008.report.jvm.address.bits>64</spec.jvm2008.report.jvm.address.bits>
    <spec.jvm2008.report.jvm.startup.command.line> </spec.jvm2008.report.jvm.startup.command.line>
  </jvm-info>
  <sw-info>
    <spec.jvm2008.report.sw.other.available> </spec.jvm2008.report.sw.other.available>
    <spec.jvm2008.report.os.tuning> </spec.jvm2008.report.os.tuning>
    <spec.jvm2008.report.sw.filesystem>n/a</spec.jvm2008.report.sw.filesystem>
    <spec.jvm2008.report.os.available.date>n/a</spec.jvm2008.report.os.available.date>
    <spec.jvm2008.report.sw.other.tuning> </spec.jvm2008.report.sw.other.tuning>
    <spec.jvm2008.report.os.address.bits>n/a</spec.jvm2008.report.os.address.bits>
    <spec.jvm2008.report.sw.other.name> </spec.jvm2008.report.sw.other.name>
    <spec.jvm2008.report.os.name>Linux</spec.jvm2008.report.os.name>
  </sw-info>
  <hw-info>
    <spec.jvm2008.report.hw.available>n/a</spec.jvm2008.report.hw.available>
    <spec.jvm2008.report.hw.vendor.url>n/a</spec.jvm2008.report.hw.vendor.url>
    <spec.jvm2008.report.hw.number.of.cores.per.chip>n/a</spec.jvm2008.report.hw.number.of.cores.per.chip>
    <spec.jvm2008.report.hw.address.bits>n/a</spec.jvm2008.report.hw.address.bits>
    <spec.jvm2008.report.hw.cpu.speed>n/a</spec.jvm2008.report.hw.cpu.speed>
    <spec.jvm2008.report.hw.cpu.cache.other>n/a</spec.jvm2008.report.hw.cpu.cache.other>
    <spec.jvm2008.report.hw.cpu.vendor.url>n/a</spec.jvm2008.report.hw.cpu.vendor.url>
    <spec.jvm2008.report.hw.cpu.cache.l2>n/a</spec.jvm2008.report.hw.cpu.cache.l2>
    <spec.jvm2008.report.hw.cpu.cache.l1>n/a</spec.jvm2008.report.hw.cpu.cache.l1>
    <spec.jvm2008.report.hw.logical.cpus>n/a</spec.jvm2008.report.hw.logical.cpus>
    <spec.jvm2008.report.hw.number.of.chips>n/a</spec.jvm2008.report.hw.number.of.chips>
    <spec.jvm2008.report.hw.memory.details>n/a</spec.jvm2008.report.hw.memory.details>
    <spec.jvm2008.report.hw.details.other>n/a</spec.jvm2008.report.hw.details.other>
    <spec.jvm2008.report.hw.cpu.vendor>n/a</spec.jvm2008.report.hw.cpu.vendor>
    <spec.jvm2008.report.hw.model>n/a</spec.jvm2008.report.hw.model>
    <spec.jvm2008.report.hw.number.of.cores>n/a</spec.jvm2008.report.hw.number.of.cores>
    <spec.jvm2008.report.hw.memory.size>n/a</spec.jvm2008.report.hw.memory.size>
    <spec.jvm2008.report.hw.vendor>n/a</spec.jvm2008.report.hw.vendor>
    <spec.jvm2008.report.hw.cpu.name>n/a</spec.jvm2008.report.hw.cpu.name>
    <spec.jvm2008.report.hw.threading.enabled>n/a</spec.jvm2008.report.hw.threading.enabled>
    <spec.jvm2008.report.hw.threads.per.core>n/a</spec.jvm2008.report.hw.threads.per.core>
  </hw-info>
  <violations>
    <violation>Property specjvm.run.type must be 2 for publication.</violation>
    <violation>Property specjvm.fixed.operations not allowed in publication run.</violation>
    <violation>Not a compliant sequence of benchmarks for publication.</violation>
    <violation>Property specjvm.run.initial.check must be true for publication.</violation>
    <violation>Checksum test failed for jar files (Checksum test failed on SPECjvm2008.jar). Kit may not be changed or rebuild.</violation>
  </violations>
  <configs>
    <config>specjvm.benchmark.warmup.time=0</config>
    <config>specjvm.benchmark.threads=4</config>
  </configs>
  <benchmark-results>
    <benchmark-result
      name="scimark.fft.large"
      category="null"
      args="scimark.fft"
      minIter="1"
      maxIter="1"
      numberBmThreads="4"
      numberOfLoops="10"
      bmType="multi"
      runMode="1">
      <warmup-result>
    </warmup-result>
    <iterations>
      <iteration-result
        iteration="1"
        expectedLoops="10"
        startTime="1583361333627"
        endTime="1583361352181"
        operations="40.0">
        <loops>
          <loop-result bmThreadId="3" loopCnt="1" startTime="1583361333629" endTime="1583361335595"/>
          <loop-result bmThreadId="1" loopCnt="1" startTime="1583361333629" endTime="1583361335636"/>
          <loop-result bmThreadId="4" loopCnt="1" startTime="1583361333629" endTime="1583361335699"/>
          <loop-result bmThreadId="2" loopCnt="1" startTime="1583361333629" endTime="1583361335705"/>
          <loop-result bmThreadId="3" loopCnt="2" startTime="1583361335595" endTime="1583361337394"/>
          <loop-result bmThreadId="1" loopCnt="2" startTime="1583361335636" endTime="1583361337429"/>
          <loop-result bmThreadId="2" loopCnt="2" startTime="1583361335705" endTime="1583361337567"/>
          <loop-result bmThreadId="4" loopCnt="2" startTime="1583361335699" endTime="1583361337569"/>
          <loop-result bmThreadId="3" loopCnt="3" startTime="1583361337394" endTime="1583361339100"/>
          <loop-result bmThreadId="1" loopCnt="3" startTime="1583361337429" endTime="1583361339117"/>
          <loop-result bmThreadId="2" loopCnt="3" startTime="1583361337567" endTime="1583361339388"/>
          <loop-result bmThreadId="4" loopCnt="3" startTime="1583361337569" endTime="1583361339389"/>
          <loop-result bmThreadId="3" loopCnt="4" startTime="1583361339100" endTime="1583361340873"/>
          <loop-result bmThreadId="1" loopCnt="4" startTime="1583361339117" endTime="1583361340873"/>
          <loop-result bmThreadId="2" loopCnt="4" startTime="1583361339388" endTime="1583361341294"/>
          <loop-result bmThreadId="4" loopCnt="4" startTime="1583361339389" endTime="1583361341302"/>
          <loop-result bmThreadId="1" loopCnt="5" startTime="1583361340873" endTime="1583361342787"/>
          <loop-result bmThreadId="3" loopCnt="5" startTime="1583361340873" endTime="1583361342791"/>
          <loop-result bmThreadId="2" loopCnt="5" startTime="1583361341294" endTime="1583361343113"/>
          <loop-result bmThreadId="4" loopCnt="5" startTime="1583361341302" endTime="1583361343127"/>
          <loop-result bmThreadId="3" loopCnt="6" startTime="1583361342791" endTime="1583361344608"/>
          <loop-result bmThreadId="1" loopCnt="6" startTime="1583361342787" endTime="1583361344627"/>
          <loop-result bmThreadId="2" loopCnt="6" startTime="1583361343113" endTime="1583361344973"/>
          <loop-result bmThreadId="4" loopCnt="6" startTime="1583361343127" endTime="1583361344986"/>
          <loop-result bmThreadId="3" loopCnt="7" startTime="1583361344608" endTime="1583361346473"/>
          <loop-result bmThreadId="1" loopCnt="7" startTime="1583361344627" endTime="1583361346474"/>
          <loop-result bmThreadId="2" loopCnt="7" startTime="1583361344973" endTime="1583361346802"/>
          <loop-result bmThreadId="4" loopCnt="7" startTime="1583361344986" endTime="1583361346833"/>
          <loop-result bmThreadId="3" loopCnt="8" startTime="1583361346473" endTime="1583361348339"/>
          <loop-result bmThreadId="1" loopCnt="8" startTime="1583361346474" endTime="1583361348339"/>
          <loop-result bmThreadId="2" loopCnt="8" startTime="1583361346802" endTime="1583361348532"/>
          <loop-result bmThreadId="4" loopCnt="8" startTime="1583361346833" endTime="1583361348562"/>
          <loop-result bmThreadId="3" loopCnt="9" startTime="1583361348339" endTime="1583361350238"/>
          <loop-result bmThreadId="1" loopCnt="9" startTime="1583361348339" endTime="1583361350239"/>
          <loop-result bmThreadId="2" loopCnt="9" startTime="1583361348532" endTime="1583361350264"/>
          <loop-result bmThreadId="4" loopCnt="9" startTime="1583361348562" endTime="1583361350277"/>
          <loop-result bmThreadId="1" loopCnt="10" startTime="1583361350239" endTime="1583361352132"/>
          <loop-result bmThreadId="3" loopCnt="10" startTime="1583361350238" endTime="1583361352135"/>
          <loop-result bmThreadId="2" loopCnt="10" startTime="1583361350264" endTime="1583361352179"/>
          <loop-result bmThreadId="4" loopCnt="10" startTime="1583361350277" endTime="1583361352181"/>
        </loops>
        <analyzers>
        </analyzers>
        <analyzer-results>
        </analyzer-results>
      </iteration-result>
    </iterations>
    </benchmark-result>
  </benchmark-results>
</specjvm-result>
