<?xml version="1.0" encoding="ISO-8859-1" ?>
<specjvm-result>
  <workload>SPECjvm2008 Peak</workload>
  <suite-build-version>SPECjvm2008 1.01 (20090519)</suite-build-version>
  <run-info>
    <spec.jvm2008.report.run.location>n/a</spec.jvm2008.report.run.location>
    <spec.jvm2008.report.run.submitter.url>n/a</spec.jvm2008.report.run.submitter.url>
    <spec.jvm2008.report.run.license>n/a</spec.jvm2008.report.run.license>
    <spec.jvm2008.report.run.tester>psu</spec.jvm2008.report.run.tester>
    <spec.jvm2008.report.run.date>Sat Sep 01 18:04:40 EDT 2018</spec.jvm2008.report.run.date>
    <spec.jvm2008.report.run.submitter>n/a</spec.jvm2008.report.run.submitter>
  </run-info>
  <jvm-info>
    <spec.jvm2008.report.jvm.vendor>Oracle Corporation</spec.jvm2008.report.jvm.vendor>
    <spec.jvm2008.report.jvm.startup.launcher>default</spec.jvm2008.report.jvm.startup.launcher>
    <spec.jvm2008.report.jvm.other.tuning> </spec.jvm2008.report.jvm.other.tuning>
    <spec.jvm2008.report.jvm.vendor.url>http://java.oracle.com/</spec.jvm2008.report.jvm.vendor.url>
    <spec.jvm2008.report.jvm.command.line.max.heap.size>n/a</spec.jvm2008.report.jvm.command.line.max.heap.size>
    <spec.jvm2008.report.jvm.version>10-internal+0-adhoc.psu.jdk10 mixed mode</spec.jvm2008.report.jvm.version>
    <spec.jvm2008.report.jvm.command.line>n/a</spec.jvm2008.report.jvm.command.line>
    <spec.jvm2008.report.jvm.command.line.initial.heap.size>n/a</spec.jvm2008.report.jvm.command.line.initial.heap.size>
    <spec.jvm2008.report.jvm.boot.class.path>n/a</spec.jvm2008.report.jvm.boot.class.path>
    <spec.jvm2008.report.jvm.name>OpenJDK 64-Bit Server VM</spec.jvm2008.report.jvm.name>
    <spec.jvm2008.report.jvm.app.class.path>SPECjvm2008.jar</spec.jvm2008.report.jvm.app.class.path>
    <spec.jvm2008.report.jvm.available.date>n/a</spec.jvm2008.report.jvm.available.date>
    <spec.jvm2008.report.jvm.java.specification>10</spec.jvm2008.report.jvm.java.specification>
    <spec.jvm2008.report.jvm.address.bits>64</spec.jvm2008.report.jvm.address.bits>
    <spec.jvm2008.report.jvm.startup.command.line> </spec.jvm2008.report.jvm.startup.command.line>
  </jvm-info>
  <sw-info>
    <spec.jvm2008.report.sw.other.available> </spec.jvm2008.report.sw.other.available>
    <spec.jvm2008.report.os.tuning> </spec.jvm2008.report.os.tuning>
    <spec.jvm2008.report.sw.filesystem>n/a</spec.jvm2008.report.sw.filesystem>
    <spec.jvm2008.report.os.available.date>n/a</spec.jvm2008.report.os.available.date>
    <spec.jvm2008.report.sw.other.tuning> </spec.jvm2008.report.sw.other.tuning>
    <spec.jvm2008.report.os.address.bits>n/a</spec.jvm2008.report.os.address.bits>
    <spec.jvm2008.report.sw.other.name> </spec.jvm2008.report.sw.other.name>
    <spec.jvm2008.report.os.name>Linux</spec.jvm2008.report.os.name>
  </sw-info>
  <hw-info>
    <spec.jvm2008.report.hw.available>n/a</spec.jvm2008.report.hw.available>
    <spec.jvm2008.report.hw.vendor.url>n/a</spec.jvm2008.report.hw.vendor.url>
    <spec.jvm2008.report.hw.number.of.cores.per.chip>n/a</spec.jvm2008.report.hw.number.of.cores.per.chip>
    <spec.jvm2008.report.hw.address.bits>n/a</spec.jvm2008.report.hw.address.bits>
    <spec.jvm2008.report.hw.cpu.speed>n/a</spec.jvm2008.report.hw.cpu.speed>
    <spec.jvm2008.report.hw.cpu.cache.other>n/a</spec.jvm2008.report.hw.cpu.cache.other>
    <spec.jvm2008.report.hw.cpu.vendor.url>n/a</spec.jvm2008.report.hw.cpu.vendor.url>
    <spec.jvm2008.report.hw.cpu.cache.l2>n/a</spec.jvm2008.report.hw.cpu.cache.l2>
    <spec.jvm2008.report.hw.cpu.cache.l1>n/a</spec.jvm2008.report.hw.cpu.cache.l1>
    <spec.jvm2008.report.hw.logical.cpus>n/a</spec.jvm2008.report.hw.logical.cpus>
    <spec.jvm2008.report.hw.number.of.chips>n/a</spec.jvm2008.report.hw.number.of.chips>
    <spec.jvm2008.report.hw.memory.details>n/a</spec.jvm2008.report.hw.memory.details>
    <spec.jvm2008.report.hw.details.other>n/a</spec.jvm2008.report.hw.details.other>
    <spec.jvm2008.report.hw.cpu.vendor>n/a</spec.jvm2008.report.hw.cpu.vendor>
    <spec.jvm2008.report.hw.model>n/a</spec.jvm2008.report.hw.model>
    <spec.jvm2008.report.hw.number.of.cores>n/a</spec.jvm2008.report.hw.number.of.cores>
    <spec.jvm2008.report.hw.memory.size>n/a</spec.jvm2008.report.hw.memory.size>
    <spec.jvm2008.report.hw.vendor>n/a</spec.jvm2008.report.hw.vendor>
    <spec.jvm2008.report.hw.cpu.name>n/a</spec.jvm2008.report.hw.cpu.name>
    <spec.jvm2008.report.hw.threading.enabled>n/a</spec.jvm2008.report.hw.threading.enabled>
    <spec.jvm2008.report.hw.threads.per.core>n/a</spec.jvm2008.report.hw.threads.per.core>
  </hw-info>
  <violations>
    <violation>Property specjvm.run.type must be 2 for publication.</violation>
    <violation>Property specjvm.fixed.operations not allowed in publication run.</violation>
    <violation>Not a compliant sequence of benchmarks for publication.</violation>
    <violation>Property specjvm.run.initial.check must be true for publication.</violation>
    <violation>Checksum test failed for jar files (Checksum test failed on SPECjvm2008.jar). Kit may not be changed or rebuild.</violation>
  </violations>
  <configs>
    <config>specjvm.benchmark.warmup.time=0</config>
    <config>specjvm.benchmark.threads=1</config>
  </configs>
  <benchmark-results>
    <benchmark-result
      name="crypto.aes"
      category="null"
      args=""
      minIter="1"
      maxIter="1"
      numberBmThreads="1"
      numberOfLoops="10"
      bmType="multi"
      runMode="1">
      <warmup-result>
    </warmup-result>
    <iterations>
      <iteration-result
        iteration="1"
        expectedLoops="10"
        startTime="1535839484369"
        endTime="1535839654470"
        operations="10.0">
        <loops>
          <loop-result bmThreadId="1" loopCnt="1" startTime="1535839484372" endTime="1535839505907"/>
          <loop-result bmThreadId="1" loopCnt="2" startTime="1535839505907" endTime="1535839523617"/>
          <loop-result bmThreadId="1" loopCnt="3" startTime="1535839523617" endTime="1535839540204"/>
          <loop-result bmThreadId="1" loopCnt="4" startTime="1535839540204" endTime="1535839556110"/>
          <loop-result bmThreadId="1" loopCnt="5" startTime="1535839556111" endTime="1535839572058"/>
          <loop-result bmThreadId="1" loopCnt="6" startTime="1535839572058" endTime="1535839588160"/>
          <loop-result bmThreadId="1" loopCnt="7" startTime="1535839588160" endTime="1535839606341"/>
          <loop-result bmThreadId="1" loopCnt="8" startTime="1535839606341" endTime="1535839622325"/>
          <loop-result bmThreadId="1" loopCnt="9" startTime="1535839622325" endTime="1535839638340"/>
          <loop-result bmThreadId="1" loopCnt="10" startTime="1535839638340" endTime="1535839654470"/>
        </loops>
        <analyzers>
        </analyzers>
        <analyzer-results>
        </analyzer-results>
      </iteration-result>
    </iterations>
    </benchmark-result>
  </benchmark-results>
</specjvm-result>
